EESchema Schematic File Version 2
LIBS:i.MX283_Board-rescue
LIBS:power
LIBS:device
LIBS:transistors
LIBS:conn
LIBS:linear
LIBS:regul
LIBS:74xx
LIBS:cmos4000
LIBS:adc-dac
LIBS:memory
LIBS:xilinx
LIBS:microcontrollers
LIBS:dsp
LIBS:microchip
LIBS:analog_switches
LIBS:motorola
LIBS:texas
LIBS:intel
LIBS:audio
LIBS:interface
LIBS:digital-audio
LIBS:philips
LIBS:display
LIBS:cypress
LIBS:siliconi
LIBS:opto
LIBS:atmel
LIBS:contrib
LIBS:valves
LIBS:iMX28
LIBS:iMX23
LIBS:110VAC
LIBS:ABM8G
LIBS:ad7699
LIBS:ad8627
LIBS:adm3101e
LIBS:ap2281
LIBS:atsam3n0aa-au
LIBS:ba50dd0whfp
LIBS:bat_con
LIBS:Carlolib-dev
LIBS:con-jack
LIBS:crystal
LIBS:EEPROM
LIBS:fsusb20
LIBS:fsusb43
LIBS:ftdichip
LIBS:gl850g
LIBS:i.mx233stamp-cache
LIBS:ili9325
LIBS:IOUT
LIBS:ipc-7351-diode
LIBS:ipc-7351-transistor
LIBS:lm35
LIBS:lm3478
LIBS:lt1117cst
LIBS:m25p32
LIBS:mcp130
LIBS:mcp73812
LIBS:mic29301
LIBS:micron_ddr_512Mb
LIBS:microsd
LIBS:mmdt3904
LIBS:m-pad-2.1
LIBS:opendous
LIBS:pasives-connectors
LIBS:PROpendous-cache
LIBS:PWR
LIBS:r_pack2
LIBS:rclamp0502b
LIBS:ref-packages
LIBS:Reset
LIBS:sdmmc
LIBS:sp481
LIBS:srf2012
LIBS:ssd1963_320x240
LIBS:stm32f2_lqfp100
LIBS:stm32f4_lqfp100
LIBS:stm32f100vxx
LIBS:switch-misc
LIBS:tps2400
LIBS:Transil_diode
LIBS:transistor-npn
LIBS:usb_a
LIBS:usba-plug
LIBS:usbconn
LIBS:usb-mini
LIBS:vasd1-s5-d5--sip
LIBS:VREF
LIBS:w_analog
LIBS:xbeepro
LIBS:Zilog-ZNEO-v1_0
LIBS:zxct1009
LIBS:zxmhc3f381n8
LIBS:inand
LIBS:drv8835
LIBS:atsam3n2
LIBS:6slx9tqg144
LIBS:lan8720a
LIBS:rj45_stamp
LIBS:i.MX283_Board-cache
EELAYER 25 0
EELAYER END
$Descr A4 11693 8268
encoding utf-8
Sheet 1 4
Title ""
Date "2 may 2014"
Rev ""
Comp ""
Comment1 ""
Comment2 ""
Comment3 ""
Comment4 ""
$EndDescr
$Sheet
S 4750 3200 1350 1250
U 4E78AF25
F0 "SAM3M" 60
F1 "SAM3N.sch" 60
F2 "JNRST" B R 6100 3500 60 
F3 "JTMS" B R 6100 3900 60 
F4 "JTCK" B R 6100 3800 60 
F5 "JTDO" B R 6100 3600 60 
F6 "JTDI" B R 6100 3700 60 
F7 "SAM_RX" O R 6100 3400 60 
F8 "SAM_TX" O R 6100 3300 60 
F9 "TWD" I R 6100 4250 60 
F10 "TWCK" I R 6100 4150 60 
F11 "DS[0..7]" I L 4750 3550 60 
F12 "SNWE" I L 4750 3650 60 
F13 "SNRD" I L 4750 3750 60 
F14 "SNCS" I L 4750 3850 60 
F15 "SNWAIT" I L 4750 3950 60 
F16 "AS[0..13]" B L 4750 3450 60 
F17 "CLK_F" I L 4750 4050 60 
$EndSheet
$Sheet
S 3200 3300 850  1350
U 54B6445D
F0 "spartan6" 60
F1 "spartan6.sch" 60
F2 "DS[0..7]" I R 4050 3550 60 
F3 "SNWE" I R 4050 3650 60 
F4 "SNRD" I R 4050 3750 60 
F5 "SNCS" I R 4050 3850 60 
F6 "SNWAIT" I R 4050 3950 60 
F7 "AS[0..13]" B R 4050 3450 60 
F8 "F_TCK" I R 4050 4200 60 
F9 "F_TDI" I R 4050 4500 60 
F10 "F_TDO" I R 4050 4400 60 
F11 "F_TMS" I R 4050 4300 60 
F12 "CLK_FPGA" I R 4050 4050 60 
$EndSheet
Text Label 6100 3600 0    60   ~ 0
P_TDO
Text Label 4100 4500 0    60   ~ 0
P_TDO
Text Label 4100 4400 0    60   ~ 0
F_TDO
$Sheet
S 7300 3150 1700 1250
U 555AB8C7
F0 "serial_interface" 60
F1 "serial_interface.sch" 60
F2 "TXD" B L 7300 3400 60 
F3 "RXD" B L 7300 3300 60 
F4 "TCK" I L 7300 3800 60 
F5 "TDI" I L 7300 3700 60 
F6 "TDO" I L 7300 3600 60 
F7 "TMS" I L 7300 3900 60 
F8 "nTRST" I L 7300 3500 60 
F9 "nSRST" I L 7300 4000 60 
$EndSheet
Wire Wire Line
	6100 3400 7300 3400
Wire Wire Line
	6800 4250 6100 4250
Wire Wire Line
	6100 3500 7300 3500
Wire Wire Line
	6100 3800 7300 3800
Wire Wire Line
	6100 3900 7300 3900
Wire Wire Line
	6100 4150 6800 4150
Wire Wire Line
	6100 3300 7300 3300
Wire Wire Line
	4050 3650 4750 3650
Wire Wire Line
	4050 3750 4750 3750
Wire Wire Line
	4050 3850 4750 3850
Wire Wire Line
	4050 3950 4750 3950
Wire Bus Line
	4050 3450 4750 3450
Wire Bus Line
	4050 3550 4750 3550
Wire Wire Line
	6500 3800 6500 2950
Wire Wire Line
	6500 2950 4400 2950
Wire Wire Line
	4400 2950 4400 4200
Wire Wire Line
	4400 4200 4050 4200
Connection ~ 6500 3800
Wire Wire Line
	6400 3900 6400 3050
Wire Wire Line
	6400 3050 4500 3050
Wire Wire Line
	4500 3050 4500 4300
Wire Wire Line
	4500 4300 4050 4300
Connection ~ 6400 3900
Wire Wire Line
	4300 4400 4050 4400
Wire Wire Line
	4300 4500 4050 4500
Wire Wire Line
	6300 3600 6100 3600
Wire Wire Line
	6100 3700 7300 3700
Wire Wire Line
	4750 4050 4050 4050
Text Label 7000 3600 0    60   ~ 0
F_TDO
Wire Wire Line
	7300 3600 7000 3600
$Comp
L CONN_1 TH1
U 1 1 555D5DB0
P 1300 5500
F 0 "TH1" H 1200 5500 40  0000 C CNN
F 1 "CONN_1" H 1400 5400 40  0001 C CNN
F 2 "opendous:1Pin_12mil_VIA" H 1300 5500 30  0001 C CNN
F 3 "" H 1300 5500 60  0000 C CNN
	1    1300 5500
	1    0    0    -1  
$EndComp
$Comp
L CONN_1 TH2
U 1 1 555D6679
P 1300 5650
F 0 "TH2" H 1200 5650 40  0000 C CNN
F 1 "CONN_1" H 1400 5550 40  0001 C CNN
F 2 "opendous:1Pin_12mil_VIA" H 1300 5650 30  0001 C CNN
F 3 "" H 1300 5650 60  0000 C CNN
	1    1300 5650
	1    0    0    -1  
$EndComp
$Comp
L CONN_1 TH3
U 1 1 555D732D
P 1300 5800
F 0 "TH3" H 1200 5800 40  0000 C CNN
F 1 "CONN_1" H 1400 5700 40  0001 C CNN
F 2 "opendous:1Pin_12mil_VIA" H 1300 5800 30  0001 C CNN
F 3 "" H 1300 5800 60  0000 C CNN
	1    1300 5800
	1    0    0    -1  
$EndComp
$Comp
L CONN_1 TH4
U 1 1 555D7333
P 1300 5950
F 0 "TH4" H 1200 5950 40  0000 C CNN
F 1 "CONN_1" H 1400 5850 40  0001 C CNN
F 2 "opendous:1Pin_12mil_VIA" H 1300 5950 30  0001 C CNN
F 3 "" H 1300 5950 60  0000 C CNN
	1    1300 5950
	1    0    0    -1  
$EndComp
$Comp
L CONN_1 TH5
U 1 1 555D7716
P 1300 6100
F 0 "TH5" H 1200 6100 40  0000 C CNN
F 1 "CONN_1" H 1400 6000 40  0001 C CNN
F 2 "opendous:1Pin_12mil_VIA" H 1300 6100 30  0001 C CNN
F 3 "" H 1300 6100 60  0000 C CNN
	1    1300 6100
	1    0    0    -1  
$EndComp
$Comp
L CONN_1 TH6
U 1 1 555D771C
P 1300 6250
F 0 "TH6" H 1200 6250 40  0000 C CNN
F 1 "CONN_1" H 1400 6150 40  0001 C CNN
F 2 "opendous:1Pin_12mil_VIA" H 1300 6250 30  0001 C CNN
F 3 "" H 1300 6250 60  0000 C CNN
	1    1300 6250
	1    0    0    -1  
$EndComp
$Comp
L CONN_1 TH7
U 1 1 555D7722
P 1300 6400
F 0 "TH7" H 1200 6400 40  0000 C CNN
F 1 "CONN_1" H 1400 6300 40  0001 C CNN
F 2 "opendous:1Pin_12mil_VIA" H 1300 6400 30  0001 C CNN
F 3 "" H 1300 6400 60  0000 C CNN
	1    1300 6400
	1    0    0    -1  
$EndComp
$Comp
L CONN_1 TH8
U 1 1 555D7728
P 1300 6550
F 0 "TH8" H 1200 6550 40  0000 C CNN
F 1 "CONN_1" H 1400 6450 40  0001 C CNN
F 2 "opendous:1Pin_12mil_VIA" H 1300 6550 30  0001 C CNN
F 3 "" H 1300 6550 60  0000 C CNN
	1    1300 6550
	1    0    0    -1  
$EndComp
$Comp
L CONN_1 TH9
U 1 1 555D798F
P 1300 6700
F 0 "TH9" H 1200 6700 40  0000 C CNN
F 1 "CONN_1" H 1400 6600 40  0001 C CNN
F 2 "opendous:1Pin_12mil_VIA" H 1300 6700 30  0001 C CNN
F 3 "" H 1300 6700 60  0000 C CNN
	1    1300 6700
	1    0    0    -1  
$EndComp
$Comp
L CONN_1 TH10
U 1 1 555D7995
P 1300 6850
F 0 "TH10" H 1200 6850 40  0000 C CNN
F 1 "CONN_1" H 1400 6750 40  0001 C CNN
F 2 "opendous:1Pin_12mil_VIA" H 1300 6850 30  0001 C CNN
F 3 "" H 1300 6850 60  0000 C CNN
	1    1300 6850
	1    0    0    -1  
$EndComp
Wire Wire Line
	1550 5500 1550 6950
Connection ~ 1550 5650
Connection ~ 1550 5800
Connection ~ 1550 5500
Connection ~ 1550 5950
Connection ~ 1550 6100
Connection ~ 1550 6250
Connection ~ 1550 6400
Connection ~ 1550 6550
Connection ~ 1550 6700
Connection ~ 1550 6850
$Comp
L GND-RESCUE-i.MX283_Board #PWR01
U 1 1 555DAC3D
P 1550 6950
F 0 "#PWR01" H 1550 6950 30  0001 C CNN
F 1 "GND" H 1550 6880 30  0001 C CNN
F 2 "" H 1550 6950 60  0001 C CNN
F 3 "" H 1550 6950 60  0001 C CNN
	1    1550 6950
	1    0    0    -1  
$EndComp
$Comp
L CONN_1 TH11
U 1 1 555DB544
P 1750 5500
F 0 "TH11" H 1650 5500 40  0000 C CNN
F 1 "CONN_1" H 1850 5400 40  0001 C CNN
F 2 "opendous:1Pin_12mil_VIA" H 1750 5500 30  0001 C CNN
F 3 "" H 1750 5500 60  0000 C CNN
	1    1750 5500
	1    0    0    -1  
$EndComp
$Comp
L CONN_1 TH12
U 1 1 555DB54A
P 1750 5650
F 0 "TH12" H 1650 5650 40  0000 C CNN
F 1 "CONN_1" H 1850 5550 40  0001 C CNN
F 2 "opendous:1Pin_12mil_VIA" H 1750 5650 30  0001 C CNN
F 3 "" H 1750 5650 60  0000 C CNN
	1    1750 5650
	1    0    0    -1  
$EndComp
$Comp
L CONN_1 TH13
U 1 1 555DB550
P 1750 5800
F 0 "TH13" H 1650 5800 40  0000 C CNN
F 1 "CONN_1" H 1850 5700 40  0001 C CNN
F 2 "opendous:1Pin_12mil_VIA" H 1750 5800 30  0001 C CNN
F 3 "" H 1750 5800 60  0000 C CNN
	1    1750 5800
	1    0    0    -1  
$EndComp
$Comp
L CONN_1 TH14
U 1 1 555DB556
P 1750 5950
F 0 "TH14" H 1650 5950 40  0000 C CNN
F 1 "CONN_1" H 1850 5850 40  0001 C CNN
F 2 "opendous:1Pin_12mil_VIA" H 1750 5950 30  0001 C CNN
F 3 "" H 1750 5950 60  0000 C CNN
	1    1750 5950
	1    0    0    -1  
$EndComp
$Comp
L CONN_1 TH15
U 1 1 555DB55C
P 1750 6100
F 0 "TH15" H 1650 6100 40  0000 C CNN
F 1 "CONN_1" H 1850 6000 40  0001 C CNN
F 2 "opendous:1Pin_12mil_VIA" H 1750 6100 30  0001 C CNN
F 3 "" H 1750 6100 60  0000 C CNN
	1    1750 6100
	1    0    0    -1  
$EndComp
$Comp
L CONN_1 TH16
U 1 1 555DB562
P 1750 6250
F 0 "TH16" H 1650 6250 40  0000 C CNN
F 1 "CONN_1" H 1850 6150 40  0001 C CNN
F 2 "opendous:1Pin_12mil_VIA" H 1750 6250 30  0001 C CNN
F 3 "" H 1750 6250 60  0000 C CNN
	1    1750 6250
	1    0    0    -1  
$EndComp
$Comp
L CONN_1 TH17
U 1 1 555DB568
P 1750 6400
F 0 "TH17" H 1650 6400 40  0000 C CNN
F 1 "CONN_1" H 1850 6300 40  0001 C CNN
F 2 "opendous:1Pin_12mil_VIA" H 1750 6400 30  0001 C CNN
F 3 "" H 1750 6400 60  0000 C CNN
	1    1750 6400
	1    0    0    -1  
$EndComp
$Comp
L CONN_1 TH18
U 1 1 555DB56E
P 1750 6550
F 0 "TH18" H 1650 6550 40  0000 C CNN
F 1 "CONN_1" H 1850 6450 40  0001 C CNN
F 2 "opendous:1Pin_12mil_VIA" H 1750 6550 30  0001 C CNN
F 3 "" H 1750 6550 60  0000 C CNN
	1    1750 6550
	1    0    0    -1  
$EndComp
$Comp
L CONN_1 TH19
U 1 1 555DB574
P 1750 6700
F 0 "TH19" H 1650 6700 40  0000 C CNN
F 1 "CONN_1" H 1850 6600 40  0001 C CNN
F 2 "opendous:1Pin_12mil_VIA" H 1750 6700 30  0001 C CNN
F 3 "" H 1750 6700 60  0000 C CNN
	1    1750 6700
	1    0    0    -1  
$EndComp
$Comp
L CONN_1 TH20
U 1 1 555DB57A
P 1750 6850
F 0 "TH20" H 1650 6850 40  0000 C CNN
F 1 "CONN_1" H 1850 6750 40  0001 C CNN
F 2 "opendous:1Pin_12mil_VIA" H 1750 6850 30  0001 C CNN
F 3 "" H 1750 6850 60  0000 C CNN
	1    1750 6850
	1    0    0    -1  
$EndComp
Wire Wire Line
	2000 5500 2000 6950
Connection ~ 2000 5650
Connection ~ 2000 5800
Connection ~ 2000 5500
Connection ~ 2000 5950
Connection ~ 2000 6100
Connection ~ 2000 6250
Connection ~ 2000 6400
Connection ~ 2000 6550
Connection ~ 2000 6700
Connection ~ 2000 6850
$Comp
L GND-RESCUE-i.MX283_Board #PWR02
U 1 1 555DB58B
P 2000 6950
F 0 "#PWR02" H 2000 6950 30  0001 C CNN
F 1 "GND" H 2000 6880 30  0001 C CNN
F 2 "" H 2000 6950 60  0001 C CNN
F 3 "" H 2000 6950 60  0001 C CNN
	1    2000 6950
	1    0    0    -1  
$EndComp
$Comp
L CONN_1 TH30
U 1 1 555DE44A
P 2200 5500
F 0 "TH30" H 2100 5500 40  0000 C CNN
F 1 "CONN_1" H 2300 5400 40  0001 C CNN
F 2 "opendous:1Pin_12mil_VIA" H 2200 5500 30  0001 C CNN
F 3 "" H 2200 5500 60  0000 C CNN
	1    2200 5500
	1    0    0    -1  
$EndComp
$Comp
L CONN_1 TH29
U 1 1 555DE450
P 2200 5650
F 0 "TH29" H 2100 5650 40  0000 C CNN
F 1 "CONN_1" H 2300 5550 40  0001 C CNN
F 2 "opendous:1Pin_12mil_VIA" H 2200 5650 30  0001 C CNN
F 3 "" H 2200 5650 60  0000 C CNN
	1    2200 5650
	1    0    0    -1  
$EndComp
$Comp
L CONN_1 TH28
U 1 1 555DE456
P 2200 5800
F 0 "TH28" H 2100 5800 40  0000 C CNN
F 1 "CONN_1" H 2300 5700 40  0001 C CNN
F 2 "opendous:1Pin_12mil_VIA" H 2200 5800 30  0001 C CNN
F 3 "" H 2200 5800 60  0000 C CNN
	1    2200 5800
	1    0    0    -1  
$EndComp
$Comp
L CONN_1 TH27
U 1 1 555DE45C
P 2200 5950
F 0 "TH27" H 2100 5950 40  0000 C CNN
F 1 "CONN_1" H 2300 5850 40  0001 C CNN
F 2 "opendous:1Pin_12mil_VIA" H 2200 5950 30  0001 C CNN
F 3 "" H 2200 5950 60  0000 C CNN
	1    2200 5950
	1    0    0    -1  
$EndComp
$Comp
L CONN_1 TH26
U 1 1 555DE462
P 2200 6100
F 0 "TH26" H 2100 6100 40  0000 C CNN
F 1 "CONN_1" H 2300 6000 40  0001 C CNN
F 2 "opendous:1Pin_12mil_VIA" H 2200 6100 30  0001 C CNN
F 3 "" H 2200 6100 60  0000 C CNN
	1    2200 6100
	1    0    0    -1  
$EndComp
$Comp
L CONN_1 TH25
U 1 1 555DE468
P 2200 6250
F 0 "TH25" H 2100 6250 40  0000 C CNN
F 1 "CONN_1" H 2300 6150 40  0001 C CNN
F 2 "opendous:1Pin_12mil_VIA" H 2200 6250 30  0001 C CNN
F 3 "" H 2200 6250 60  0000 C CNN
	1    2200 6250
	1    0    0    -1  
$EndComp
$Comp
L CONN_1 TH24
U 1 1 555DE46E
P 2200 6400
F 0 "TH24" H 2100 6400 40  0000 C CNN
F 1 "CONN_1" H 2300 6300 40  0001 C CNN
F 2 "opendous:1Pin_12mil_VIA" H 2200 6400 30  0001 C CNN
F 3 "" H 2200 6400 60  0000 C CNN
	1    2200 6400
	1    0    0    -1  
$EndComp
$Comp
L CONN_1 TH23
U 1 1 555DE474
P 2200 6550
F 0 "TH23" H 2100 6550 40  0000 C CNN
F 1 "CONN_1" H 2300 6450 40  0001 C CNN
F 2 "opendous:1Pin_12mil_VIA" H 2200 6550 30  0001 C CNN
F 3 "" H 2200 6550 60  0000 C CNN
	1    2200 6550
	1    0    0    -1  
$EndComp
$Comp
L CONN_1 TH22
U 1 1 555DE47A
P 2200 6700
F 0 "TH22" H 2100 6700 40  0000 C CNN
F 1 "CONN_1" H 2300 6600 40  0001 C CNN
F 2 "opendous:1Pin_12mil_VIA" H 2200 6700 30  0001 C CNN
F 3 "" H 2200 6700 60  0000 C CNN
	1    2200 6700
	1    0    0    -1  
$EndComp
$Comp
L CONN_1 TH21
U 1 1 555DE480
P 2200 6850
F 0 "TH21" H 2100 6850 40  0000 C CNN
F 1 "CONN_1" H 2300 6750 40  0001 C CNN
F 2 "opendous:1Pin_12mil_VIA" H 2200 6850 30  0001 C CNN
F 3 "" H 2200 6850 60  0000 C CNN
	1    2200 6850
	1    0    0    -1  
$EndComp
Wire Wire Line
	2450 5500 2450 6950
Connection ~ 2450 5650
Connection ~ 2450 5800
Connection ~ 2450 5500
Connection ~ 2450 5950
Connection ~ 2450 6100
Connection ~ 2450 6250
Connection ~ 2450 6400
Connection ~ 2450 6550
Connection ~ 2450 6700
Connection ~ 2450 6850
$Comp
L GND-RESCUE-i.MX283_Board #PWR03
U 1 1 555DE491
P 2450 6950
F 0 "#PWR03" H 2450 6950 30  0001 C CNN
F 1 "GND" H 2450 6880 30  0001 C CNN
F 2 "" H 2450 6950 60  0001 C CNN
F 3 "" H 2450 6950 60  0001 C CNN
	1    2450 6950
	1    0    0    -1  
$EndComp
$Comp
L CONN_1 TH31
U 1 1 555DE497
P 2650 5500
F 0 "TH31" H 2550 5500 40  0000 C CNN
F 1 "CONN_1" H 2750 5400 40  0001 C CNN
F 2 "opendous:1Pin_12mil_VIA" H 2650 5500 30  0001 C CNN
F 3 "" H 2650 5500 60  0000 C CNN
	1    2650 5500
	1    0    0    -1  
$EndComp
$Comp
L CONN_1 TH32
U 1 1 555DE49D
P 2650 5650
F 0 "TH32" H 2550 5650 40  0000 C CNN
F 1 "CONN_1" H 2750 5550 40  0001 C CNN
F 2 "opendous:1Pin_12mil_VIA" H 2650 5650 30  0001 C CNN
F 3 "" H 2650 5650 60  0000 C CNN
	1    2650 5650
	1    0    0    -1  
$EndComp
$Comp
L CONN_1 TH33
U 1 1 555DE4A3
P 2650 5800
F 0 "TH33" H 2550 5800 40  0000 C CNN
F 1 "CONN_1" H 2750 5700 40  0001 C CNN
F 2 "opendous:1Pin_12mil_VIA" H 2650 5800 30  0001 C CNN
F 3 "" H 2650 5800 60  0000 C CNN
	1    2650 5800
	1    0    0    -1  
$EndComp
$Comp
L CONN_1 TH34
U 1 1 555DE4A9
P 2650 5950
F 0 "TH34" H 2550 5950 40  0000 C CNN
F 1 "CONN_1" H 2750 5850 40  0001 C CNN
F 2 "opendous:1Pin_12mil_VIA" H 2650 5950 30  0001 C CNN
F 3 "" H 2650 5950 60  0000 C CNN
	1    2650 5950
	1    0    0    -1  
$EndComp
$Comp
L CONN_1 TH35
U 1 1 555DE4AF
P 2650 6100
F 0 "TH35" H 2550 6100 40  0000 C CNN
F 1 "CONN_1" H 2750 6000 40  0001 C CNN
F 2 "opendous:1Pin_12mil_VIA" H 2650 6100 30  0001 C CNN
F 3 "" H 2650 6100 60  0000 C CNN
	1    2650 6100
	1    0    0    -1  
$EndComp
$Comp
L CONN_1 TH36
U 1 1 555DE4B5
P 2650 6250
F 0 "TH36" H 2550 6250 40  0000 C CNN
F 1 "CONN_1" H 2750 6150 40  0001 C CNN
F 2 "opendous:1Pin_12mil_VIA" H 2650 6250 30  0001 C CNN
F 3 "" H 2650 6250 60  0000 C CNN
	1    2650 6250
	1    0    0    -1  
$EndComp
$Comp
L CONN_1 TH37
U 1 1 555DE4BB
P 2650 6400
F 0 "TH37" H 2550 6400 40  0000 C CNN
F 1 "CONN_1" H 2750 6300 40  0001 C CNN
F 2 "opendous:1Pin_12mil_VIA" H 2650 6400 30  0001 C CNN
F 3 "" H 2650 6400 60  0000 C CNN
	1    2650 6400
	1    0    0    -1  
$EndComp
$Comp
L CONN_1 TH38
U 1 1 555DE4C1
P 2650 6550
F 0 "TH38" H 2550 6550 40  0000 C CNN
F 1 "CONN_1" H 2750 6450 40  0001 C CNN
F 2 "opendous:1Pin_12mil_VIA" H 2650 6550 30  0001 C CNN
F 3 "" H 2650 6550 60  0000 C CNN
	1    2650 6550
	1    0    0    -1  
$EndComp
$Comp
L CONN_1 TH39
U 1 1 555DE4C7
P 2650 6700
F 0 "TH39" H 2550 6700 40  0000 C CNN
F 1 "CONN_1" H 2750 6600 40  0001 C CNN
F 2 "opendous:1Pin_12mil_VIA" H 2650 6700 30  0001 C CNN
F 3 "" H 2650 6700 60  0000 C CNN
	1    2650 6700
	1    0    0    -1  
$EndComp
$Comp
L CONN_1 TH40
U 1 1 555DE4CD
P 2650 6850
F 0 "TH40" H 2550 6850 40  0000 C CNN
F 1 "CONN_1" H 2750 6750 40  0001 C CNN
F 2 "opendous:1Pin_12mil_VIA" H 2650 6850 30  0001 C CNN
F 3 "" H 2650 6850 60  0000 C CNN
	1    2650 6850
	1    0    0    -1  
$EndComp
Wire Wire Line
	2900 5500 2900 6950
Connection ~ 2900 5650
Connection ~ 2900 5800
Connection ~ 2900 5500
Connection ~ 2900 5950
Connection ~ 2900 6100
Connection ~ 2900 6250
Connection ~ 2900 6400
Connection ~ 2900 6550
Connection ~ 2900 6700
Connection ~ 2900 6850
$Comp
L GND-RESCUE-i.MX283_Board #PWR04
U 1 1 555DE4DE
P 2900 6950
F 0 "#PWR04" H 2900 6950 30  0001 C CNN
F 1 "GND" H 2900 6880 30  0001 C CNN
F 2 "" H 2900 6950 60  0001 C CNN
F 3 "" H 2900 6950 60  0001 C CNN
	1    2900 6950
	1    0    0    -1  
$EndComp
$Comp
L CONN_1 TH41
U 1 1 555E1761
P 3100 5500
F 0 "TH41" H 3000 5500 40  0000 C CNN
F 1 "CONN_1" H 3200 5400 40  0001 C CNN
F 2 "opendous:1Pin_12mil_VIA" H 3100 5500 30  0001 C CNN
F 3 "" H 3100 5500 60  0000 C CNN
	1    3100 5500
	1    0    0    -1  
$EndComp
$Comp
L CONN_1 TH42
U 1 1 555E1767
P 3100 5650
F 0 "TH42" H 3000 5650 40  0000 C CNN
F 1 "CONN_1" H 3200 5550 40  0001 C CNN
F 2 "opendous:1Pin_12mil_VIA" H 3100 5650 30  0001 C CNN
F 3 "" H 3100 5650 60  0000 C CNN
	1    3100 5650
	1    0    0    -1  
$EndComp
$Comp
L CONN_1 TH43
U 1 1 555E176D
P 3100 5800
F 0 "TH43" H 3000 5800 40  0000 C CNN
F 1 "CONN_1" H 3200 5700 40  0001 C CNN
F 2 "opendous:1Pin_12mil_VIA" H 3100 5800 30  0001 C CNN
F 3 "" H 3100 5800 60  0000 C CNN
	1    3100 5800
	1    0    0    -1  
$EndComp
$Comp
L CONN_1 TH44
U 1 1 555E1773
P 3100 5950
F 0 "TH44" H 3000 5950 40  0000 C CNN
F 1 "CONN_1" H 3200 5850 40  0001 C CNN
F 2 "opendous:1Pin_12mil_VIA" H 3100 5950 30  0001 C CNN
F 3 "" H 3100 5950 60  0000 C CNN
	1    3100 5950
	1    0    0    -1  
$EndComp
$Comp
L CONN_1 TH45
U 1 1 555E1779
P 3100 6100
F 0 "TH45" H 3000 6100 40  0000 C CNN
F 1 "CONN_1" H 3200 6000 40  0001 C CNN
F 2 "opendous:1Pin_12mil_VIA" H 3100 6100 30  0001 C CNN
F 3 "" H 3100 6100 60  0000 C CNN
	1    3100 6100
	1    0    0    -1  
$EndComp
$Comp
L CONN_1 TH46
U 1 1 555E177F
P 3100 6250
F 0 "TH46" H 3000 6250 40  0000 C CNN
F 1 "CONN_1" H 3200 6150 40  0001 C CNN
F 2 "opendous:1Pin_12mil_VIA" H 3100 6250 30  0001 C CNN
F 3 "" H 3100 6250 60  0000 C CNN
	1    3100 6250
	1    0    0    -1  
$EndComp
$Comp
L CONN_1 TH47
U 1 1 555E1785
P 3100 6400
F 0 "TH47" H 3000 6400 40  0000 C CNN
F 1 "CONN_1" H 3200 6300 40  0001 C CNN
F 2 "opendous:1Pin_12mil_VIA" H 3100 6400 30  0001 C CNN
F 3 "" H 3100 6400 60  0000 C CNN
	1    3100 6400
	1    0    0    -1  
$EndComp
$Comp
L CONN_1 TH48
U 1 1 555E178B
P 3100 6550
F 0 "TH48" H 3000 6550 40  0000 C CNN
F 1 "CONN_1" H 3200 6450 40  0001 C CNN
F 2 "opendous:1Pin_12mil_VIA" H 3100 6550 30  0001 C CNN
F 3 "" H 3100 6550 60  0000 C CNN
	1    3100 6550
	1    0    0    -1  
$EndComp
$Comp
L CONN_1 TH49
U 1 1 555E1791
P 3100 6700
F 0 "TH49" H 3000 6700 40  0000 C CNN
F 1 "CONN_1" H 3200 6600 40  0001 C CNN
F 2 "opendous:1Pin_12mil_VIA" H 3100 6700 30  0001 C CNN
F 3 "" H 3100 6700 60  0000 C CNN
	1    3100 6700
	1    0    0    -1  
$EndComp
$Comp
L CONN_1 TH50
U 1 1 555E1797
P 3100 6850
F 0 "TH50" H 3000 6850 40  0000 C CNN
F 1 "CONN_1" H 3200 6750 40  0001 C CNN
F 2 "opendous:1Pin_12mil_VIA" H 3100 6850 30  0001 C CNN
F 3 "" H 3100 6850 60  0000 C CNN
	1    3100 6850
	1    0    0    -1  
$EndComp
Wire Wire Line
	3350 5500 3350 6950
Connection ~ 3350 5650
Connection ~ 3350 5800
Connection ~ 3350 5500
Connection ~ 3350 5950
Connection ~ 3350 6100
Connection ~ 3350 6250
Connection ~ 3350 6400
Connection ~ 3350 6550
Connection ~ 3350 6700
Connection ~ 3350 6850
$Comp
L GND-RESCUE-i.MX283_Board #PWR?
U 1 1 555E17A8
P 3350 6950
F 0 "#PWR?" H 3350 6950 30  0001 C CNN
F 1 "GND" H 3350 6880 30  0001 C CNN
F 2 "" H 3350 6950 60  0001 C CNN
F 3 "" H 3350 6950 60  0001 C CNN
	1    3350 6950
	1    0    0    -1  
$EndComp
$EndSCHEMATC
