EESchema Schematic File Version 2
LIBS:i.MX283_Board-rescue
LIBS:power
LIBS:device
LIBS:transistors
LIBS:conn
LIBS:linear
LIBS:regul
LIBS:74xx
LIBS:cmos4000
LIBS:adc-dac
LIBS:memory
LIBS:xilinx
LIBS:microcontrollers
LIBS:dsp
LIBS:microchip
LIBS:analog_switches
LIBS:motorola
LIBS:texas
LIBS:intel
LIBS:audio
LIBS:interface
LIBS:digital-audio
LIBS:philips
LIBS:display
LIBS:cypress
LIBS:siliconi
LIBS:opto
LIBS:atmel
LIBS:contrib
LIBS:valves
LIBS:iMX28
LIBS:iMX23
LIBS:110VAC
LIBS:ABM8G
LIBS:ad7699
LIBS:ad8627
LIBS:adm3101e
LIBS:ap2281
LIBS:atsam3n0aa-au
LIBS:ba50dd0whfp
LIBS:bat_con
LIBS:Carlolib-dev
LIBS:con-jack
LIBS:crystal
LIBS:EEPROM
LIBS:fsusb20
LIBS:fsusb43
LIBS:ftdichip
LIBS:gl850g
LIBS:i.mx233stamp-cache
LIBS:ili9325
LIBS:IOUT
LIBS:ipc-7351-diode
LIBS:ipc-7351-transistor
LIBS:lm35
LIBS:lm3478
LIBS:lt1117cst
LIBS:m25p32
LIBS:mcp130
LIBS:mcp73812
LIBS:mic29301
LIBS:micron_ddr_512Mb
LIBS:microsd
LIBS:mmdt3904
LIBS:m-pad-2.1
LIBS:opendous
LIBS:pasives-connectors
LIBS:PROpendous-cache
LIBS:PWR
LIBS:r_pack2
LIBS:rclamp0502b
LIBS:ref-packages
LIBS:Reset
LIBS:sdmmc
LIBS:sp481
LIBS:srf2012
LIBS:ssd1963_320x240
LIBS:stm32f2_lqfp100
LIBS:stm32f4_lqfp100
LIBS:stm32f100vxx
LIBS:switch-misc
LIBS:tps2400
LIBS:Transil_diode
LIBS:transistor-npn
LIBS:usb_a
LIBS:usba-plug
LIBS:usbconn
LIBS:usb-mini
LIBS:vasd1-s5-d5--sip
LIBS:VREF
LIBS:w_analog
LIBS:xbeepro
LIBS:Zilog-ZNEO-v1_0
LIBS:zxct1009
LIBS:zxmhc3f381n8
LIBS:inand
LIBS:drv8835
LIBS:atsam3n2
LIBS:6slx9tqg144
LIBS:lan8720a
LIBS:rj45_stamp
LIBS:i.MX283_Board-cache
EELAYER 25 0
EELAYER END
$Descr User 12000 10000
encoding utf-8
Sheet 2 4
Title ""
Date "2 may 2014"
Rev ""
Comp ""
Comment1 ""
Comment2 ""
Comment3 ""
Comment4 ""
$EndDescr
Text HLabel 1400 4800 0    60   Output ~ 0
SAM_RX
Text HLabel 1400 4900 0    60   Output ~ 0
SAM_TX
$Comp
L +1.8V #PWR05
U 1 1 516D632A
P 6550 8450
F 0 "#PWR05" H 6550 8590 20  0001 C CNN
F 1 "+1.8V" H 6550 8560 30  0000 C CNN
F 2 "" H 6550 8450 60  0001 C CNN
F 3 "" H 6550 8450 60  0001 C CNN
	1    6550 8450
	1    0    0    -1  
$EndComp
$Comp
L C-RESCUE-i.MX283_Board C409
U 1 1 516D62FA
P 6000 8800
F 0 "C409" H 6050 8900 50  0000 L CNN
F 1 "0.1uF" H 6050 8700 50  0000 L CNN
F 2 "SM0603" H 6000 8800 60  0001 C CNN
F 3 "" H 6000 8800 60  0001 C CNN
	1    6000 8800
	1    0    0    -1  
$EndComp
$Comp
L C-RESCUE-i.MX283_Board C410
U 1 1 516D62F9
P 6350 8800
F 0 "C410" H 6400 8900 50  0000 L CNN
F 1 "0.1uF" H 6400 8700 50  0000 L CNN
F 2 "SM0603" H 6350 8800 60  0001 C CNN
F 3 "" H 6350 8800 60  0001 C CNN
	1    6350 8800
	1    0    0    -1  
$EndComp
$Comp
L C-RESCUE-i.MX283_Board C411
U 1 1 516D62F8
P 6700 8800
F 0 "C411" H 6750 8900 50  0000 L CNN
F 1 "1uF" H 6750 8700 50  0000 L CNN
F 2 "SM0603" H 6700 8800 60  0001 C CNN
F 3 "" H 6700 8800 60  0001 C CNN
	1    6700 8800
	1    0    0    -1  
$EndComp
$Comp
L C-RESCUE-i.MX283_Board C412
U 1 1 516D62F7
P 7050 8800
F 0 "C412" H 7100 8900 50  0000 L CNN
F 1 "4.7uF" H 7100 8700 50  0000 L CNN
F 2 "SM1206" H 7050 8800 60  0001 C CNN
F 3 "" H 7050 8800 60  0001 C CNN
	1    7050 8800
	1    0    0    -1  
$EndComp
$Comp
L GND-RESCUE-i.MX283_Board #PWR06
U 1 1 516D62F6
P 6550 9100
F 0 "#PWR06" H 6550 9100 30  0001 C CNN
F 1 "GND" H 6550 9030 30  0001 C CNN
F 2 "" H 6550 9100 60  0001 C CNN
F 3 "" H 6550 9100 60  0001 C CNN
	1    6550 9100
	1    0    0    -1  
$EndComp
$Comp
L C-RESCUE-i.MX283_Board C408
U 1 1 516D62F5
P 5650 8800
F 0 "C408" H 5700 8900 50  0000 L CNN
F 1 "0.1uF" H 5700 8700 50  0000 L CNN
F 2 "SM0603" H 5650 8800 60  0001 C CNN
F 3 "" H 5650 8800 60  0001 C CNN
	1    5650 8800
	1    0    0    -1  
$EndComp
$Comp
L +3.3VP #PWR07
U 1 1 516D62A0
P 6900 750
F 0 "#PWR07" H 6950 780 20  0001 C CNN
F 1 "+3.3VP" H 6900 840 30  0000 C CNN
F 2 "" H 6900 750 60  0001 C CNN
F 3 "" H 6900 750 60  0001 C CNN
	1    6900 750 
	1    0    0    -1  
$EndComp
$Comp
L +3.3VP #PWR08
U 1 1 516D629C
P 7500 850
F 0 "#PWR08" H 7550 880 20  0001 C CNN
F 1 "+3.3VP" H 7500 940 30  0000 C CNN
F 2 "" H 7500 850 60  0001 C CNN
F 3 "" H 7500 850 60  0001 C CNN
	1    7500 850 
	1    0    0    -1  
$EndComp
$Comp
L +3.3VP #PWR09
U 1 1 516D625C
P 4000 8450
F 0 "#PWR09" H 4050 8480 20  0001 C CNN
F 1 "+3.3VP" H 4000 8540 30  0000 C CNN
F 2 "" H 4000 8450 60  0001 C CNN
F 3 "" H 4000 8450 60  0001 C CNN
	1    4000 8450
	1    0    0    -1  
$EndComp
$Comp
L +3.3VP #PWR010
U 1 1 516D624A
P 2450 800
F 0 "#PWR010" H 2500 830 20  0001 C CNN
F 1 "+3.3VP" H 2450 890 30  0000 C CNN
F 2 "" H 2450 800 60  0001 C CNN
F 3 "" H 2450 800 60  0001 C CNN
	1    2450 800 
	1    0    0    -1  
$EndComp
$Comp
L C-RESCUE-i.MX283_Board C401
U 1 1 516D60B5
P 3100 8800
F 0 "C401" H 3150 8900 50  0000 L CNN
F 1 "0.1uF" H 3150 8700 50  0000 L CNN
F 2 "SM0603" H 3100 8800 60  0001 C CNN
F 3 "" H 3100 8800 60  0001 C CNN
	1    3100 8800
	1    0    0    -1  
$EndComp
$Comp
L GND-RESCUE-i.MX283_Board #PWR011
U 1 1 516D6095
P 4000 9100
F 0 "#PWR011" H 4000 9100 30  0001 C CNN
F 1 "GND" H 4000 9030 30  0001 C CNN
F 2 "" H 4000 9100 60  0001 C CNN
F 3 "" H 4000 9100 60  0001 C CNN
	1    4000 9100
	1    0    0    -1  
$EndComp
$Comp
L C-RESCUE-i.MX283_Board C407
U 1 1 516D6094
P 4500 8800
F 0 "C407" H 4550 8900 50  0000 L CNN
F 1 "4.7uF" H 4550 8700 50  0000 L CNN
F 2 "SM1206" H 4500 8800 60  0001 C CNN
F 3 "" H 4500 8800 60  0001 C CNN
	1    4500 8800
	1    0    0    -1  
$EndComp
$Comp
L C-RESCUE-i.MX283_Board C406
U 1 1 516D6093
P 4150 8800
F 0 "C406" H 4200 8900 50  0000 L CNN
F 1 "1uF" H 4200 8700 50  0000 L CNN
F 2 "SM0603" H 4150 8800 60  0001 C CNN
F 3 "" H 4150 8800 60  0001 C CNN
	1    4150 8800
	1    0    0    -1  
$EndComp
$Comp
L C-RESCUE-i.MX283_Board C405
U 1 1 516D6092
P 3800 8800
F 0 "C405" H 3850 8900 50  0000 L CNN
F 1 "0.1uF" H 3850 8700 50  0000 L CNN
F 2 "SM0603" H 3800 8800 60  0001 C CNN
F 3 "" H 3800 8800 60  0001 C CNN
	1    3800 8800
	1    0    0    -1  
$EndComp
$Comp
L C-RESCUE-i.MX283_Board C404
U 1 1 516D6091
P 3450 8800
F 0 "C404" H 3500 8900 50  0000 L CNN
F 1 "0.1uF" H 3500 8700 50  0000 L CNN
F 2 "SM0603" H 3450 8800 60  0001 C CNN
F 3 "" H 3450 8800 60  0001 C CNN
	1    3450 8800
	1    0    0    -1  
$EndComp
NoConn ~ 1600 1900
NoConn ~ 1600 2500
Text HLabel 1400 2400 0    60   Input ~ 0
JNRST
Text HLabel 1400 2300 0    60   Input ~ 0
JTCK
Text HLabel 1400 2200 0    60   Input ~ 0
JTMS
Text HLabel 1400 2100 0    60   Input ~ 0
JTDO
Text HLabel 1400 2000 0    60   Input ~ 0
JTDI
$Comp
L GND-RESCUE-i.MX283_Board #PWR012
U 1 1 516D5EEC
P 3250 7300
F 0 "#PWR012" H 3250 7300 30  0001 C CNN
F 1 "GND" H 3250 7230 30  0001 C CNN
F 2 "" H 3250 7300 60  0001 C CNN
F 3 "" H 3250 7300 60  0001 C CNN
	1    3250 7300
	-1   0    0    -1  
$EndComp
$Comp
L GND-RESCUE-i.MX283_Board #PWR013
U 1 1 516D5EBB
P 7650 2150
F 0 "#PWR013" H 7650 2150 30  0001 C CNN
F 1 "GND" H 7650 2080 30  0001 C CNN
F 2 "" H 7650 2150 60  0001 C CNN
F 3 "" H 7650 2150 60  0001 C CNN
	1    7650 2150
	1    0    0    -1  
$EndComp
$Comp
L ABM8G X401
U 1 1 516D5EBA
P 6950 2100
F 0 "X401" H 6950 2250 60  0000 C CNN
F 1 "12MHz" H 6950 1950 60  0000 C CNN
F 2 "ABM8G" H 6950 2100 60  0001 C CNN
F 3 "" H 6950 2100 60  0001 C CNN
	1    6950 2100
	0    -1   1    0   
$EndComp
$Comp
L VDD5V #PWR014
U 1 1 4E7B5061
P 5450 850
F 0 "#PWR014" H 5450 950 30  0001 C CNN
F 1 "VDD5V" H 5450 950 30  0000 C CNN
F 2 "" H 5450 850 60  0001 C CNN
F 3 "" H 5450 850 60  0001 C CNN
	1    5450 850 
	1    0    0    -1  
$EndComp
$Comp
L GND-RESCUE-i.MX283_Board #PWR015
U 1 1 4E7B4E89
P 5450 1500
F 0 "#PWR015" H 5450 1500 30  0001 C CNN
F 1 "GND" H 5450 1430 30  0001 C CNN
F 2 "" H 5450 1500 60  0001 C CNN
F 3 "" H 5450 1500 60  0001 C CNN
	1    5450 1500
	1    0    0    -1  
$EndComp
$Comp
L GND-RESCUE-i.MX283_Board #PWR016
U 1 1 4E7B4E84
P 6900 1500
F 0 "#PWR016" H 6900 1500 30  0001 C CNN
F 1 "GND" H 6900 1430 30  0001 C CNN
F 2 "" H 6900 1500 60  0001 C CNN
F 3 "" H 6900 1500 60  0001 C CNN
	1    6900 1500
	1    0    0    -1  
$EndComp
$Comp
L C-RESCUE-i.MX283_Board C76
U 1 1 4E7B4A85
P 6900 1200
F 0 "C76" H 6950 1300 50  0000 L CNN
F 1 "33uF" H 6950 1100 50  0000 L CNN
F 2 "SM1206" H 6900 1200 60  0001 C CNN
F 3 "" H 6900 1200 60  0001 C CNN
	1    6900 1200
	1    0    0    -1  
$EndComp
$Comp
L C-RESCUE-i.MX283_Board C74
U 1 1 4E7B4A81
P 5450 1200
F 0 "C74" H 5500 1300 50  0000 L CNN
F 1 "33uF" H 5500 1100 50  0000 L CNN
F 2 "SM1206" H 5450 1200 60  0001 C CNN
F 3 "" H 5450 1200 60  0001 C CNN
	1    5450 1200
	1    0    0    -1  
$EndComp
$Comp
L GND-RESCUE-i.MX283_Board #PWR017
U 1 1 4E7B44BE
P 6500 1500
F 0 "#PWR017" H 6500 1500 30  0001 C CNN
F 1 "GND" H 6500 1430 30  0001 C CNN
F 2 "" H 6500 1500 60  0001 C CNN
F 3 "" H 6500 1500 60  0001 C CNN
	1    6500 1500
	1    0    0    -1  
$EndComp
$Comp
L GND-RESCUE-i.MX283_Board #PWR018
U 1 1 4E7B44A2
P 5650 1100
F 0 "#PWR018" H 5650 1100 30  0001 C CNN
F 1 "GND" H 5650 1030 30  0001 C CNN
F 2 "" H 5650 1100 60  0001 C CNN
F 3 "" H 5650 1100 60  0001 C CNN
	1    5650 1100
	1    0    0    -1  
$EndComp
$Comp
L LT1117CST U11
U 1 1 4E7B41E9
P 6100 1100
F 0 "U11" H 5950 1400 60  0000 C CNN
F 1 "ZLDO1117G33TA" H 6100 1100 40  0000 C CNN
F 2 "LT1117" H 6100 1100 60  0001 C CNN
F 3 "" H 6100 1100 60  0001 C CNN
	1    6100 1100
	1    0    0    -1  
$EndComp
$Comp
L C-RESCUE-i.MX283_Board C75
U 1 1 4E7B41E8
P 6500 1200
F 0 "C75" H 6550 1300 50  0000 L CNN
F 1 "100n" H 6550 1100 50  0000 L CNN
F 2 "SM0603" H 6500 1200 60  0001 C CNN
F 3 "" H 6500 1200 60  0001 C CNN
	1    6500 1200
	1    0    0    -1  
$EndComp
$Comp
L R-RESCUE-i.MX283_Board R33
U 1 1 4E188E50
P 8900 1350
F 0 "R33" V 8980 1350 50  0000 C CNN
F 1 "1k" V 8900 1350 50  0000 C CNN
F 2 "SM0603" H 8900 1350 60  0001 C CNN
F 3 "" H 8900 1350 60  0001 C CNN
	1    8900 1350
	0    1    1    0   
$EndComp
$Comp
L LED-RESCUE-i.MX283_Board D9
U 1 1 4E188E4F
P 8900 1050
F 0 "D9" H 8900 1150 50  0000 C CNN
F 1 "LED" H 8900 950 50  0000 C CNN
F 2 "SM0603" H 8900 1050 60  0001 C CNN
F 3 "" H 8900 1050 60  0001 C CNN
	1    8900 1050
	-1   0    0    1   
$EndComp
$Comp
L GND-RESCUE-i.MX283_Board #PWR019
U 1 1 4E188E4E
P 9300 1350
F 0 "#PWR019" H 9300 1350 30  0001 C CNN
F 1 "GND" H 9300 1280 30  0001 C CNN
F 2 "" H 9300 1350 60  0001 C CNN
F 3 "" H 9300 1350 60  0001 C CNN
	1    9300 1350
	0    -1   1    0   
$EndComp
Text Label 8650 850  0    60   ~ 0
LED
$Comp
L GND-RESCUE-i.MX283_Board #PWR020
U 1 1 4E186DEB
P 8000 1350
F 0 "#PWR020" H 8000 1350 30  0001 C CNN
F 1 "GND" H 8000 1280 30  0001 C CNN
F 2 "" H 8000 1350 60  0001 C CNN
F 3 "" H 8000 1350 60  0001 C CNN
	1    8000 1350
	0    -1   1    0   
$EndComp
$Comp
L LED-RESCUE-i.MX283_Board D8
U 1 1 4DCDB178
P 7600 1050
F 0 "D8" H 7600 1150 50  0000 C CNN
F 1 "LED" H 7600 950 50  0000 C CNN
F 2 "SM0603" H 7600 1050 60  0001 C CNN
F 3 "" H 7600 1050 60  0001 C CNN
	1    7600 1050
	-1   0    0    1   
$EndComp
$Comp
L R-RESCUE-i.MX283_Board R5
U 1 1 4DCDB177
P 7600 1350
F 0 "R5" V 7680 1350 50  0000 C CNN
F 1 "1k" V 7600 1350 50  0000 C CNN
F 2 "SM0603" H 7600 1350 60  0001 C CNN
F 3 "" H 7600 1350 60  0001 C CNN
	1    7600 1350
	0    1    1    0   
$EndComp
Text Notes 9600 750  0    60   ~ 0
LEDS
Text Label 1200 2750 0    60   ~ 0
Erase
$Comp
L C-RESCUE-i.MX283_Board C402
U 1 1 54B5643A
P 7200 1800
F 0 "C402" H 7000 1900 50  0000 L CNN
F 1 "20pF" H 7000 1700 50  0000 L CNN
F 2 "SM0603" H 7200 1800 60  0001 C CNN
F 3 "" H 7200 1800 60  0001 C CNN
	1    7200 1800
	0    -1   1    0   
$EndComp
$Comp
L C-RESCUE-i.MX283_Board C403
U 1 1 54B5666D
P 7200 2400
F 0 "C403" H 7250 2500 50  0000 L CNN
F 1 "20pF" H 7250 2300 50  0000 L CNN
F 2 "SM0603" H 7200 2400 60  0001 C CNN
F 3 "" H 7200 2400 60  0001 C CNN
	1    7200 2400
	0    -1   1    0   
$EndComp
$Comp
L +3.3VP #PWR021
U 1 1 54B587C8
P 4100 800
F 0 "#PWR021" H 4150 830 20  0001 C CNN
F 1 "+3.3VP" H 4100 890 30  0000 C CNN
F 2 "" H 4100 800 60  0001 C CNN
F 3 "" H 4100 800 60  0001 C CNN
	1    4100 800 
	1    0    0    -1  
$EndComp
Entry Wire Line
	1250 3100 1350 3200
Entry Wire Line
	1250 3200 1350 3300
Entry Wire Line
	1250 3300 1350 3400
Entry Wire Line
	1250 3400 1350 3500
Entry Wire Line
	1250 3500 1350 3600
Entry Wire Line
	1250 3600 1350 3700
Entry Wire Line
	1250 3700 1350 3800
Entry Wire Line
	1250 3800 1350 3900
Text Label 1400 3200 0    60   ~ 0
DS0
Text Label 1400 3300 0    60   ~ 0
DS1
Text Label 1400 3400 0    60   ~ 0
DS2
Text Label 1400 3500 0    60   ~ 0
DS3
Text Label 1400 3600 0    60   ~ 0
DS4
Text Label 1400 3700 0    60   ~ 0
DS5
Text Label 1400 3800 0    60   ~ 0
DS6
Text Label 1400 3900 0    60   ~ 0
DS7
Text HLabel 1100 3000 0    60   Input ~ 0
DS[0..7]
Text HLabel 1400 4000 0    60   Input ~ 0
SNWE
Text HLabel 1400 4100 0    60   Input ~ 0
SNRD
Text HLabel 1400 4200 0    60   Input ~ 0
SNCS
Text HLabel 1400 4300 0    60   Input ~ 0
SNWAIT
Connection ~ 6000 8600
Wire Wire Line
	4950 8600 7050 8600
Connection ~ 6550 8600
Wire Wire Line
	6550 8600 6550 8450
Connection ~ 6350 8600
Connection ~ 6350 9000
Connection ~ 6700 9000
Connection ~ 6700 8600
Wire Wire Line
	6550 9000 6550 9100
Connection ~ 6550 9000
Wire Wire Line
	4950 9000 7050 9000
Connection ~ 6000 9000
Connection ~ 3450 9000
Wire Wire Line
	2100 9000 4500 9000
Connection ~ 4000 9000
Wire Wire Line
	4000 9000 4000 9100
Connection ~ 4150 8600
Connection ~ 4150 9000
Connection ~ 3800 9000
Connection ~ 3800 8600
Wire Wire Line
	4000 8600 4000 8450
Connection ~ 4000 8600
Wire Wire Line
	1400 2400 1600 2400
Wire Wire Line
	1400 2200 1600 2200
Wire Wire Line
	1400 2000 1600 2000
Wire Wire Line
	3050 7150 3450 7150
Wire Wire Line
	6650 2000 6650 2400
Wire Wire Line
	6650 2000 4900 2000
Connection ~ 7450 2100
Connection ~ 7400 2100
Wire Wire Line
	7400 1800 7450 1800
Wire Wire Line
	7450 1800 7450 2400
Wire Wire Line
	7450 2400 7400 2400
Connection ~ 6950 2400
Connection ~ 6950 1800
Wire Wire Line
	7400 2150 7350 2150
Wire Wire Line
	7400 2050 7400 2150
Wire Wire Line
	7400 2050 7350 2050
Wire Wire Line
	7400 2100 7650 2100
Wire Wire Line
	7650 2100 7650 2150
Connection ~ 5450 900 
Wire Wire Line
	5450 850  5450 1000
Wire Wire Line
	5450 1400 5450 1500
Wire Wire Line
	6900 1400 6900 1500
Wire Wire Line
	6500 900  6500 1000
Wire Wire Line
	5750 1000 5650 1000
Wire Wire Line
	5650 1000 5650 1100
Wire Wire Line
	8700 1050 8550 1050
Wire Wire Line
	8550 1050 8550 1350
Wire Wire Line
	8550 1350 8650 1350
Wire Wire Line
	9300 1350 9150 1350
Wire Wire Line
	8650 850  9250 850 
Wire Wire Line
	9250 850  9250 1050
Wire Wire Line
	9250 1050 9100 1050
Wire Wire Line
	7800 1050 7950 1050
Wire Wire Line
	7950 1050 7950 850 
Wire Wire Line
	8000 1350 7850 1350
Wire Wire Line
	7350 1350 7250 1350
Wire Wire Line
	7250 1350 7250 1050
Wire Wire Line
	7250 1050 7400 1050
Wire Wire Line
	7950 850  7500 850 
Wire Wire Line
	6500 1000 6400 1000
Wire Wire Line
	6900 750  6900 1000
Connection ~ 6500 1000
Connection ~ 6500 900 
Wire Wire Line
	6500 1400 6500 1500
Wire Wire Line
	6400 900  6900 900 
Connection ~ 6900 900 
Wire Wire Line
	5750 900  5450 900 
Wire Wire Line
	4900 1800 7000 1800
Wire Wire Line
	6650 2400 7000 2400
Wire Wire Line
	3250 7050 3250 7300
Connection ~ 3250 7150
Wire Wire Line
	1400 2100 1600 2100
Wire Wire Line
	1400 2300 1600 2300
Wire Wire Line
	2100 8600 4500 8600
Connection ~ 3450 8600
Wire Wire Line
	1200 2750 1600 2750
Wire Wire Line
	3350 7150 3350 7050
Wire Wire Line
	3450 7150 3450 7050
Connection ~ 3350 7150
Wire Wire Line
	3150 7150 3150 7050
Wire Wire Line
	3050 7050 3050 7150
Connection ~ 3150 7150
Wire Wire Line
	1350 3200 1600 3200
Wire Wire Line
	1350 3300 1600 3300
Wire Wire Line
	1350 3400 1600 3400
Wire Wire Line
	1350 3500 1600 3500
Wire Wire Line
	1350 3600 1600 3600
Wire Wire Line
	1350 3700 1600 3700
Wire Wire Line
	1350 3800 1600 3800
Wire Wire Line
	1350 3900 1600 3900
Wire Bus Line
	1250 3000 1250 3800
Wire Bus Line
	1250 3000 1100 3000
Wire Wire Line
	1400 4000 1600 4000
Wire Wire Line
	1400 4100 1600 4100
Wire Wire Line
	1400 4200 1600 4200
Wire Wire Line
	1400 4300 1600 4300
Wire Wire Line
	2450 800  2450 1050
Wire Wire Line
	3200 900  3200 1050
Wire Wire Line
	2450 900  3200 900 
Connection ~ 2450 900 
Wire Wire Line
	3100 1050 3100 900 
Connection ~ 3100 900 
Wire Wire Line
	3000 1050 3000 900 
Connection ~ 3000 900 
Wire Wire Line
	2900 1050 2900 900 
Connection ~ 2900 900 
Wire Wire Line
	2800 1050 2800 900 
Connection ~ 2800 900 
Wire Wire Line
	2550 1050 2550 950 
Wire Wire Line
	2550 950  3850 950 
Wire Wire Line
	3450 950  3450 1050
Wire Wire Line
	3550 950  3550 1050
Connection ~ 3450 950 
Wire Wire Line
	3650 950  3650 1050
Connection ~ 3550 950 
Wire Wire Line
	3750 950  3750 1050
Connection ~ 3650 950 
Wire Wire Line
	3850 950  3850 1050
Connection ~ 3750 950 
$Comp
L ATSAM3N2 US1
U 1 1 54B55492
P 3200 3700
F 0 "US1" H 3100 3250 60  0000 C CNN
F 1 "ATSAM3S2CA-AU" H 3150 3100 60  0000 C CNN
F 2 "Housings_QFP:LQFP-100_14x14mm_Pitch0.5mm" H 3200 3700 60  0001 C CNN
F 3 "" H 3200 3700 60  0000 C CNN
	1    3200 3700
	1    0    0    -1  
$EndComp
$Comp
L +1.8V #PWR022
U 1 1 516D634E
P 3850 950
F 0 "#PWR022" H 3850 1090 20  0001 C CNN
F 1 "+1.8V" H 3850 1060 30  0000 C CNN
F 2 "" H 3850 950 60  0001 C CNN
F 3 "" H 3850 950 60  0001 C CNN
	1    3850 950 
	1    0    0    -1  
$EndComp
Connection ~ 3850 950 
Wire Wire Line
	4100 800  4100 1050
Wire Wire Line
	1600 4800 1400 4800
Wire Wire Line
	1400 4900 1600 4900
$Comp
L C-RESCUE-i.MX283_Board C398
U 1 1 54C403EB
P 2100 8800
F 0 "C398" H 2150 8900 50  0000 L CNN
F 1 "0.1uF" H 2150 8700 50  0000 L CNN
F 2 "SM0603" H 2100 8800 60  0001 C CNN
F 3 "" H 2100 8800 60  0001 C CNN
	1    2100 8800
	1    0    0    -1  
$EndComp
$Comp
L C-RESCUE-i.MX283_Board C400
U 1 1 54C403F1
P 2800 8800
F 0 "C400" H 2850 8900 50  0000 L CNN
F 1 "0.1uF" H 2850 8700 50  0000 L CNN
F 2 "SM0603" H 2800 8800 60  0001 C CNN
F 3 "" H 2800 8800 60  0001 C CNN
	1    2800 8800
	1    0    0    -1  
$EndComp
$Comp
L C-RESCUE-i.MX283_Board C399
U 1 1 54C403F7
P 2450 8800
F 0 "C399" H 2500 8900 50  0000 L CNN
F 1 "0.1uF" H 2500 8700 50  0000 L CNN
F 2 "SM0603" H 2450 8800 60  0001 C CNN
F 3 "" H 2450 8800 60  0001 C CNN
	1    2450 8800
	1    0    0    -1  
$EndComp
Connection ~ 2450 9000
Connection ~ 2800 9000
Connection ~ 2800 8600
Connection ~ 2450 8600
Connection ~ 3100 8600
Connection ~ 3100 9000
$Comp
L C-RESCUE-i.MX283_Board C397
U 1 1 54C41B07
P 5300 8800
F 0 "C397" H 5350 8900 50  0000 L CNN
F 1 "0.1uF" H 5350 8700 50  0000 L CNN
F 2 "SM0603" H 5300 8800 60  0001 C CNN
F 3 "" H 5300 8800 60  0001 C CNN
	1    5300 8800
	1    0    0    -1  
$EndComp
$Comp
L C-RESCUE-i.MX283_Board C396
U 1 1 54C41B0D
P 4950 8800
F 0 "C396" H 5000 8900 50  0000 L CNN
F 1 "0.1uF" H 5000 8700 50  0000 L CNN
F 2 "SM0603" H 4950 8800 60  0001 C CNN
F 3 "" H 4950 8800 60  0001 C CNN
	1    4950 8800
	1    0    0    -1  
$EndComp
Connection ~ 5300 8600
Connection ~ 5300 9000
Connection ~ 5650 8600
Connection ~ 5650 9000
Entry Wire Line
	5150 3050 5250 3150
Entry Wire Line
	5150 3150 5250 3250
Entry Wire Line
	5150 3250 5250 3350
Entry Wire Line
	5150 3350 5250 3450
Entry Wire Line
	5150 3450 5250 3550
Entry Wire Line
	5150 3550 5250 3650
Entry Wire Line
	5150 3650 5250 3750
Entry Wire Line
	5150 3750 5250 3850
Entry Wire Line
	5150 3850 5250 3950
Entry Wire Line
	5150 3950 5250 4050
Entry Wire Line
	5150 4050 5250 4150
Entry Wire Line
	5150 4150 5250 4250
Entry Wire Line
	5150 4250 5250 4350
Entry Wire Line
	5150 4350 5250 4450
Text Label 4900 3050 0    60   ~ 0
AS0
Text Label 4900 3150 0    60   ~ 0
AS1
Text Label 4900 3250 0    60   ~ 0
AS2
Text Label 4900 3350 0    60   ~ 0
AS3
Text Label 4900 3450 0    60   ~ 0
AS4
Text Label 4900 3550 0    60   ~ 0
AS5
Text Label 4900 3650 0    60   ~ 0
AS6
Text Label 4900 3750 0    60   ~ 0
AS7
Text Label 4900 3850 0    60   ~ 0
AS8
Text Label 4900 3950 0    60   ~ 0
AS9
Text Label 4900 4050 0    60   ~ 0
AS10
Text Label 4900 4150 0    60   ~ 0
AS11
Text Label 4900 4250 0    60   ~ 0
AS12
Text Label 4900 4350 0    60   ~ 0
AS13
Text HLabel 5400 3000 2    60   BiDi ~ 0
AS[0..13]
Wire Wire Line
	4900 3050 5150 3050
Wire Wire Line
	4900 3150 5150 3150
Wire Wire Line
	4900 3250 5150 3250
Wire Wire Line
	4900 3350 5150 3350
Wire Wire Line
	4900 3450 5150 3450
Wire Wire Line
	4900 3550 5150 3550
Wire Wire Line
	4900 3650 5150 3650
Wire Wire Line
	4900 3750 5150 3750
Wire Wire Line
	4900 3850 5150 3850
Wire Wire Line
	4900 3950 5150 3950
Wire Wire Line
	4900 4050 5150 4050
Wire Wire Line
	4900 4150 5150 4150
Wire Wire Line
	4900 4250 5150 4250
Wire Wire Line
	4900 4350 5150 4350
Wire Bus Line
	5250 3000 5400 3000
Wire Bus Line
	5250 3000 5250 4450
$Comp
L CONN_02X14 PSA1
U 1 1 54C40123
P 6600 5100
F 0 "PSA1" H 6600 5850 50  0000 C CNN
F 1 "CONN_02X14" V 6600 5100 50  0000 C CNN
F 2 "Socket_Strips:Socket_Strip_Straight_2x14" H 6600 3950 60  0001 C CNN
F 3 "" H 6600 3950 60  0000 C CNN
	1    6600 5100
	-1   0    0    1   
$EndComp
Wire Wire Line
	1100 4600 1600 4600
Wire Wire Line
	1100 4700 1600 4700
Wire Wire Line
	1100 5000 1600 5000
Wire Wire Line
	1100 5100 1600 5100
Wire Wire Line
	1100 5200 1600 5200
Wire Wire Line
	1100 5300 1600 5300
Wire Wire Line
	1100 5400 1600 5400
Wire Wire Line
	1100 5500 1600 5500
Wire Wire Line
	1100 5900 1600 5900
Wire Wire Line
	1100 5700 1600 5700
Text Label 1150 4600 0    60   ~ 0
AD4
Text Label 1150 4700 0    60   ~ 0
AD5
Text Label 1150 5000 0    60   ~ 0
AD0
Text Label 1150 5100 0    60   ~ 0
AD1
Text Label 1150 5200 0    60   ~ 0
AD8
Text Label 1150 5300 0    60   ~ 0
AD2
Text Label 1150 5400 0    60   ~ 0
AD11
Text Label 1150 5500 0    60   ~ 0
AD9
Text Label 1150 5700 0    60   ~ 0
AD3
Wire Wire Line
	6850 4450 7350 4450
Wire Wire Line
	5850 4450 6350 4450
Text Label 5900 4450 0    60   ~ 0
AD5
Wire Wire Line
	6850 4550 7350 4550
Wire Wire Line
	5850 4550 6350 4550
Wire Wire Line
	6850 5650 7350 5650
Wire Wire Line
	5850 5750 6350 5750
Wire Wire Line
	6850 5750 7350 5750
Wire Wire Line
	5850 5650 6350 5650
Text Label 6900 4550 0    60   ~ 0
AD0
Text Label 5900 4550 0    60   ~ 0
AD1
Text Label 6900 5650 0    60   ~ 0
AD11
Text Label 5900 5750 0    60   ~ 0
AD2
Text Label 6900 5750 0    60   ~ 0
AD8
Text Label 5900 5650 0    60   ~ 0
AD9
Wire Wire Line
	1100 5800 1600 5800
Wire Wire Line
	1100 6100 1600 6100
Wire Wire Line
	1100 6000 1600 6000
Wire Wire Line
	850  7350 1350 7350
Wire Wire Line
	850  7250 1350 7250
Wire Wire Line
	1100 6500 1600 6500
Wire Wire Line
	850  7450 1350 7450
Wire Wire Line
	1100 6600 1600 6600
Text Label 1150 5800 0    60   ~ 0
PWML2
Text Label 1150 5900 0    60   ~ 0
PWML3
Text Label 1150 6000 0    60   ~ 0
PWMH3
Text Label 1150 6100 0    60   ~ 0
PWMH2
Text Label 900  7250 0    60   ~ 0
PWMH1
Text Label 900  7350 0    60   ~ 0
PWMH2
Text Label 900  7450 0    60   ~ 0
TIOA2
Text Label 1150 6500 0    60   ~ 0
PWMH1
Text Label 1150 6600 0    60   ~ 0
PWMH0
Wire Wire Line
	6850 5550 7350 5550
Wire Wire Line
	5850 5550 6350 5550
Wire Wire Line
	6850 5450 7350 5450
Wire Wire Line
	5850 5450 6350 5450
Wire Wire Line
	4900 6300 5400 6300
Wire Wire Line
	4900 6400 5400 6400
Text Label 5900 5550 0    60   ~ 0
PWML2
Text Label 6900 5550 0    60   ~ 0
PWML3
Text Label 5900 5450 0    60   ~ 0
PWMH3
Text Label 6900 5450 0    60   ~ 0
PWMH2
Text Label 4950 6300 0    60   ~ 0
URXD0
Text Label 4950 6400 0    60   ~ 0
UTXD0
Wire Wire Line
	4900 6100 5400 6100
Wire Wire Line
	4900 6200 5400 6200
Text Label 4950 6100 0    60   ~ 0
RXD0
Text Label 4950 6200 0    60   ~ 0
TXD0
Wire Wire Line
	6850 5350 7350 5350
Wire Wire Line
	5850 5350 6350 5350
Text Label 6900 5350 0    60   ~ 0
URXD0
Text Label 5900 5350 0    60   ~ 0
UTXD0
Wire Wire Line
	5850 5250 6350 5250
Wire Wire Line
	6850 5250 7350 5250
Text Label 5900 5250 0    60   ~ 0
RXD0
Text Label 6900 5250 0    60   ~ 0
TXD0
Wire Wire Line
	5400 6000 4900 6000
Wire Wire Line
	5400 5900 4900 5900
Wire Wire Line
	5400 5800 4900 5800
Wire Wire Line
	5400 5700 4900 5700
Wire Wire Line
	5400 5600 4900 5600
Wire Wire Line
	5400 5500 4900 5500
Wire Wire Line
	5400 5400 4900 5400
Wire Wire Line
	5400 5300 4900 5300
Wire Wire Line
	5400 5200 4900 5200
Wire Wire Line
	5400 5100 4900 5100
Wire Wire Line
	5400 5000 4900 5000
Wire Wire Line
	5400 4900 4900 4900
Wire Wire Line
	5400 4800 4900 4800
Wire Wire Line
	5400 4700 4900 4700
Wire Wire Line
	5400 4600 4900 4600
Text Label 4950 6000 0    60   ~ 0
PA4
Text Label 4950 5900 0    60   ~ 0
PA27
Text Label 4950 5800 0    60   ~ 0
PA28
Text Label 4950 5700 0    60   ~ 0
PC9
Text Label 4950 5600 0    60   ~ 0
PA29
Text Label 4950 5500 0    60   ~ 0
PA30
Text Label 4950 5400 0    60   ~ 0
PC10
Text Label 4950 5300 0    60   ~ 0
PA3
Text Label 4950 5200 0    60   ~ 0
PA2
Text Label 4950 5100 0    60   ~ 0
PC14
Text Label 4950 5000 0    60   ~ 0
PA1
Text Label 4950 4900 0    60   ~ 0
PC16
Wire Wire Line
	6350 5150 5850 5150
Wire Wire Line
	7350 5150 6850 5150
Wire Wire Line
	6350 5050 5850 5050
Wire Wire Line
	7350 5050 6850 5050
Wire Wire Line
	6350 4950 5850 4950
Wire Wire Line
	7350 4950 6850 4950
Wire Wire Line
	6350 4850 5850 4850
Wire Wire Line
	7350 4850 6850 4850
Wire Wire Line
	6350 4750 5850 4750
Wire Wire Line
	7350 4750 6850 4750
Text Label 5900 5150 0    60   ~ 0
PA4
Text Label 6900 5150 0    60   ~ 0
PA27
Text Label 5900 5050 0    60   ~ 0
PA28
Text Label 6900 5050 0    60   ~ 0
PC9
Text Label 5900 4950 0    60   ~ 0
PA29
Text Label 6900 4950 0    60   ~ 0
PA30
Text Label 5900 4850 0    60   ~ 0
PC10
Text Label 6900 4850 0    60   ~ 0
PA3
Text Label 5900 4750 0    60   ~ 0
PA2
Text Label 6900 4750 0    60   ~ 0
PC14
Text Label 5000 4700 0    60   ~ 0
LED
$Comp
L +3.3VP #PWR023
U 1 1 54ED0F5F
P 7350 4450
F 0 "#PWR023" H 7400 4480 20  0001 C CNN
F 1 "+3.3VP" H 7350 4540 30  0000 C CNN
F 2 "" H 7350 4450 60  0001 C CNN
F 3 "" H 7350 4450 60  0001 C CNN
	1    7350 4450
	0    1    1    0   
$EndComp
Wire Wire Line
	6350 4650 5850 4650
$Comp
L GND-RESCUE-i.MX283_Board #PWR024
U 1 1 54ED12AC
P 7350 4650
F 0 "#PWR024" H 7350 4650 30  0001 C CNN
F 1 "GND" H 7350 4580 30  0001 C CNN
F 2 "" H 7350 4650 60  0001 C CNN
F 3 "" H 7350 4650 60  0001 C CNN
	1    7350 4650
	0    -1   -1   0   
$EndComp
Wire Wire Line
	6850 4650 7350 4650
Text Label 4950 4600 0    60   ~ 0
CLK_FPGA
Text HLabel 5400 4600 2    60   Input ~ 0
CLK_F
$Comp
L USB-MINI JMS2
U 1 1 555B7046
P 8600 3550
F 0 "JMS2" H 8350 4000 60  0000 C CNN
F 1 "USB-MINI" H 8500 3350 60  0000 C CNN
F 2 "Connect:USB_Mini-B" H 8600 3550 60  0001 C CNN
F 3 "" H 8600 3550 60  0000 C CNN
	1    8600 3550
	1    0    0    1   
$EndComp
Wire Wire Line
	7400 3550 7950 3550
Wire Wire Line
	7300 3650 7950 3650
$Comp
L GND-RESCUE-i.MX283_Board #PWR025
U 1 1 555B7051
P 7750 3900
F 0 "#PWR025" H 7750 3900 30  0001 C CNN
F 1 "GND" H 7750 3830 30  0001 C CNN
F 2 "" H 7750 3900 60  0001 C CNN
F 3 "" H 7750 3900 60  0001 C CNN
	1    7750 3900
	1    0    0    -1  
$EndComp
Wire Wire Line
	7950 3850 7750 3850
Wire Wire Line
	7750 3850 7750 3900
Wire Wire Line
	9100 3500 9100 3900
Connection ~ 9100 3700
Connection ~ 9100 3600
$Comp
L DIODE DP3
U 1 1 555B705C
P 7800 3150
F 0 "DP3" H 7800 3250 40  0000 C CNN
F 1 "DIODE" H 7800 3050 40  0000 C CNN
F 2 "opendous:SM0603_Opendous" H 7800 3150 60  0001 C CNN
F 3 "" H 7800 3150 60  0000 C CNN
	1    7800 3150
	0    -1   -1   0   
$EndComp
$Comp
L VDD5V #PWR026
U 1 1 555B7063
P 7800 2850
F 0 "#PWR026" H 7800 2950 30  0001 C CNN
F 1 "VDD5V" H 7800 2950 30  0000 C CNN
F 2 "" H 7800 2850 60  0001 C CNN
F 3 "" H 7800 2850 60  0001 C CNN
	1    7800 2850
	1    0    0    -1  
$EndComp
Wire Wire Line
	7800 2850 7800 2950
Wire Wire Line
	7950 3450 7800 3450
Wire Wire Line
	7800 3450 7800 3350
$Comp
L GND-RESCUE-i.MX283_Board #PWR027
U 1 1 555B706C
P 9100 3900
F 0 "#PWR027" H 9100 3900 30  0001 C CNN
F 1 "GND" H 9100 3830 30  0001 C CNN
F 2 "" H 9100 3900 60  0001 C CNN
F 3 "" H 9100 3900 60  0001 C CNN
	1    9100 3900
	1    0    0    -1  
$EndComp
Connection ~ 9100 3800
Wire Wire Line
	7400 2700 7400 3550
Wire Wire Line
	7700 3550 7700 3550
Wire Wire Line
	7300 3650 7300 2800
$Comp
L R-RESCUE-i.MX283_Board RUF1
U 1 1 555B9831
P 5950 2700
F 0 "RUF1" V 6030 2700 50  0000 C CNN
F 1 "27" V 5950 2700 50  0000 C CNN
F 2 "SM0603" H 5950 2700 60  0001 C CNN
F 3 "" H 5950 2700 60  0001 C CNN
	1    5950 2700
	0    1    1    0   
$EndComp
$Comp
L R-RESCUE-i.MX283_Board RUF2
U 1 1 555B9AE4
P 6450 2800
F 0 "RUF2" V 6530 2800 50  0000 C CNN
F 1 "27" V 6450 2800 50  0000 C CNN
F 2 "SM0603" H 6450 2800 60  0001 C CNN
F 3 "" H 6450 2800 60  0001 C CNN
	1    6450 2800
	0    1    1    0   
$EndComp
Wire Wire Line
	6200 2700 7400 2700
Wire Wire Line
	7300 2800 6700 2800
Wire Wire Line
	5700 2700 4900 2700
Wire Wire Line
	4900 2800 6200 2800
$Comp
L GND-RESCUE-i.MX283_Board #PWR028
U 1 1 555D26A9
P 5850 4650
F 0 "#PWR028" H 5850 4650 30  0001 C CNN
F 1 "GND" H 5850 4580 30  0001 C CNN
F 2 "" H 5850 4650 60  0001 C CNN
F 3 "" H 5850 4650 60  0001 C CNN
	1    5850 4650
	0    1    1    0   
$EndComp
$EndSCHEMATC
