EESchema Schematic File Version 2
LIBS:i.MX283_Board-rescue
LIBS:power
LIBS:device
LIBS:transistors
LIBS:conn
LIBS:linear
LIBS:regul
LIBS:74xx
LIBS:cmos4000
LIBS:adc-dac
LIBS:memory
LIBS:xilinx
LIBS:microcontrollers
LIBS:dsp
LIBS:microchip
LIBS:analog_switches
LIBS:motorola
LIBS:texas
LIBS:intel
LIBS:audio
LIBS:interface
LIBS:digital-audio
LIBS:philips
LIBS:display
LIBS:cypress
LIBS:siliconi
LIBS:opto
LIBS:atmel
LIBS:contrib
LIBS:valves
LIBS:iMX28
LIBS:iMX23
LIBS:110VAC
LIBS:ABM8G
LIBS:ad7699
LIBS:ad8627
LIBS:adm3101e
LIBS:ap2281
LIBS:atsam3n0aa-au
LIBS:ba50dd0whfp
LIBS:bat_con
LIBS:Carlolib-dev
LIBS:con-jack
LIBS:crystal
LIBS:EEPROM
LIBS:fsusb20
LIBS:fsusb43
LIBS:ftdichip
LIBS:gl850g
LIBS:i.mx233stamp-cache
LIBS:ili9325
LIBS:IOUT
LIBS:ipc-7351-diode
LIBS:ipc-7351-transistor
LIBS:lm35
LIBS:lm3478
LIBS:lt1117cst
LIBS:m25p32
LIBS:mcp130
LIBS:mcp73812
LIBS:mic29301
LIBS:micron_ddr_512Mb
LIBS:microsd
LIBS:mmdt3904
LIBS:m-pad-2.1
LIBS:opendous
LIBS:pasives-connectors
LIBS:PROpendous-cache
LIBS:PWR
LIBS:r_pack2
LIBS:rclamp0502b
LIBS:ref-packages
LIBS:Reset
LIBS:sdmmc
LIBS:sp481
LIBS:srf2012
LIBS:ssd1963_320x240
LIBS:stm32f2_lqfp100
LIBS:stm32f4_lqfp100
LIBS:stm32f100vxx
LIBS:switch-misc
LIBS:tps2400
LIBS:Transil_diode
LIBS:transistor-npn
LIBS:usb_a
LIBS:usba-plug
LIBS:usbconn
LIBS:usb-mini
LIBS:vasd1-s5-d5--sip
LIBS:VREF
LIBS:w_analog
LIBS:xbeepro
LIBS:Zilog-ZNEO-v1_0
LIBS:zxct1009
LIBS:zxmhc3f381n8
LIBS:inand
LIBS:drv8835
LIBS:atsam3n2
LIBS:6slx9tqg144
LIBS:lan8720a
LIBS:rj45_stamp
LIBS:i.MX283_Board-cache
EELAYER 25 0
EELAYER END
$Descr A3 16535 11693
encoding utf-8
Sheet 4 4
Title ""
Date "9 aug 2012"
Rev ""
Comp ""
Comment1 ""
Comment2 ""
Comment3 ""
Comment4 ""
$EndDescr
Connection ~ 11500 6650
Wire Wire Line
	8250 4200 9600 4200
Wire Wire Line
	12800 4900 13750 4900
Connection ~ 8950 5100
Wire Wire Line
	8950 5100 8850 5100
Wire Wire Line
	8850 5100 8850 5200
Connection ~ 9500 5400
Wire Wire Line
	9350 5400 9750 5400
Wire Wire Line
	10800 5300 9750 5300
Wire Wire Line
	9750 5300 9750 5400
Connection ~ 11900 6650
Wire Wire Line
	11500 6650 12000 6650
Wire Wire Line
	12000 6650 12000 6500
Connection ~ 11700 6650
Wire Wire Line
	11800 6650 11800 6500
Wire Wire Line
	12800 4800 13750 4800
Wire Wire Line
	12800 6100 12950 6100
Wire Wire Line
	13450 6100 13500 6100
Wire Wire Line
	13450 4600 13500 4600
Wire Wire Line
	10800 5700 10650 5700
Wire Wire Line
	10250 3300 10250 3350
Wire Wire Line
	10150 4700 10800 4700
Wire Wire Line
	9650 1650 9650 1700
Connection ~ 11700 2750
Wire Wire Line
	11800 3000 11800 2750
Wire Wire Line
	11800 2750 11700 2750
Wire Wire Line
	11500 3000 11500 2200
Wire Wire Line
	11500 2200 11100 2200
Wire Wire Line
	10550 5600 10800 5600
Wire Wire Line
	10800 3600 10700 3600
Connection ~ 10150 4200
Wire Wire Line
	10150 4500 10150 4200
Wire Wire Line
	10100 3900 10800 3900
Wire Notes Line
	1050 500  550  500 
Wire Wire Line
	10100 4200 10800 4200
Wire Wire Line
	10650 4500 10800 4500
Wire Wire Line
	11100 2600 11100 2650
Wire Wire Line
	9900 5500 9900 5600
Wire Wire Line
	9900 5600 10050 5600
Wire Wire Line
	11700 1700 11700 3000
Wire Wire Line
	11900 3000 11900 2800
Wire Wire Line
	11900 2800 12000 2800
Wire Wire Line
	12000 2800 12000 3000
Wire Wire Line
	9650 2100 9650 2150
Wire Wire Line
	9500 1700 9750 1700
Wire Wire Line
	10450 2150 10450 2200
Wire Wire Line
	10450 1700 10450 1750
Connection ~ 10450 1700
Wire Wire Line
	10350 1700 11700 1700
Connection ~ 11100 1700
Connection ~ 10850 1700
Wire Wire Line
	10250 2900 10700 2900
Wire Wire Line
	10700 2900 10700 3600
Wire Wire Line
	10650 5700 10650 5750
Wire Wire Line
	12800 4600 12950 4600
Wire Wire Line
	11500 6500 11500 6700
Wire Wire Line
	11700 6650 11700 6500
Wire Wire Line
	11900 6500 11900 6650
Connection ~ 11800 6650
Wire Wire Line
	10800 5000 9750 5000
Wire Wire Line
	9750 5000 9750 4800
Wire Wire Line
	9750 4800 9350 4800
Connection ~ 9500 4800
Wire Wire Line
	8950 4800 8950 5400
Wire Wire Line
	12900 6200 12800 6200
Wire Wire Line
	8250 3900 9600 3900
$Comp
L GND-RESCUE-i.MX283_Board #PWR059
U 1 1 4FC6CFCA
P 11500 6700
F 0 "#PWR059" H 11500 6700 30  0001 C CNN
F 1 "GND" H 11500 6630 30  0001 C CNN
F 2 "" H 11500 6700 60  0001 C CNN
F 3 "" H 11500 6700 60  0001 C CNN
	1    11500 6700
	1    0    0    -1  
$EndComp
$Comp
L GND-RESCUE-i.MX283_Board #PWR060
U 1 1 4FC6CFB6
P 8850 5200
F 0 "#PWR060" H 8850 5200 30  0001 C CNN
F 1 "GND" H 8850 5130 30  0001 C CNN
F 2 "" H 8850 5200 60  0001 C CNN
F 3 "" H 8850 5200 60  0001 C CNN
	1    8850 5200
	1    0    0    -1  
$EndComp
$Comp
L C-RESCUE-i.MX283_Board CF40
U 1 1 4FC6CF8D
P 9150 4800
F 0 "CF40" H 9200 4900 50  0000 L CNN
F 1 "47pF" V 9250 4550 50  0000 L CNN
F 2 "opendous:SM0603_Opendous" H 9150 4800 60  0001 C CNN
F 3 "" H 9150 4800 60  0001 C CNN
	1    9150 4800
	0    -1   -1   0   
$EndComp
$Comp
L C-RESCUE-i.MX283_Board CF41
U 1 1 4FC6CF5C
P 9150 5400
F 0 "CF41" H 9200 5500 50  0000 L CNN
F 1 "47pF" V 9250 5150 50  0000 L CNN
F 2 "opendous:SM0603_Opendous" H 9150 5400 60  0001 C CNN
F 3 "" H 9150 5400 60  0001 C CNN
	1    9150 5400
	0    -1   -1   0   
$EndComp
$Comp
L R-RESCUE-i.MX283_Board RF20
U 1 1 4FC6C4A3
P 13200 6100
F 0 "RF20" V 13280 6100 50  0000 C CNN
F 1 "10k" V 13200 6100 50  0000 C CNN
F 2 "opendous:SM0603_Opendous" H 13200 6100 60  0001 C CNN
F 3 "" H 13200 6100 60  0001 C CNN
	1    13200 6100
	0    -1   -1   0   
$EndComp
$Comp
L +3.3V-RESCUE-i.MX283_Board #PWR061
U 1 1 4FC6C4A2
P 13500 6100
AR Path="/4FC6C4A2" Ref="#PWR061"  Part="1" 
AR Path="/555AB8C7/4FC6C4A2" Ref="#PWR061"  Part="1" 
F 0 "#PWR061" H 13500 6050 20  0001 C CNN
F 1 "+3.3V" H 13500 6200 30  0000 C CNN
F 2 "" H 13500 6100 60  0001 C CNN
F 3 "" H 13500 6100 60  0001 C CNN
	1    13500 6100
	1    0    0    -1  
$EndComp
$Comp
L +3.3V-RESCUE-i.MX283_Board #PWR062
U 1 1 4FC6C462
P 13500 4600
AR Path="/4FC6C462" Ref="#PWR062"  Part="1" 
AR Path="/555AB8C7/4FC6C462" Ref="#PWR062"  Part="1" 
F 0 "#PWR062" H 13500 4550 20  0001 C CNN
F 1 "+3.3V" H 13500 4700 30  0000 C CNN
F 2 "" H 13500 4600 60  0001 C CNN
F 3 "" H 13500 4600 60  0001 C CNN
	1    13500 4600
	1    0    0    -1  
$EndComp
$Comp
L R-RESCUE-i.MX283_Board RF19
U 1 1 4FC6C443
P 13200 4600
F 0 "RF19" V 13280 4600 50  0000 C CNN
F 1 "10k" V 13200 4600 50  0000 C CNN
F 2 "opendous:SM0603_Opendous" H 13200 4600 60  0001 C CNN
F 3 "" H 13200 4600 60  0001 C CNN
	1    13200 4600
	0    -1   -1   0   
$EndComp
$Comp
L GND-RESCUE-i.MX283_Board #PWR063
U 1 1 4FC6C3D8
P 10650 5750
F 0 "#PWR063" H 10650 5750 30  0001 C CNN
F 1 "GND" H 10650 5680 30  0001 C CNN
F 2 "" H 10650 5750 60  0001 C CNN
F 3 "" H 10650 5750 60  0001 C CNN
	1    10650 5750
	1    0    0    -1  
$EndComp
$Comp
L C-RESCUE-i.MX283_Board CF39
U 1 1 4FC6C3C0
P 10250 3100
F 0 "CF39" H 10300 3200 50  0000 L CNN
F 1 "33nF" H 10300 3000 50  0000 L CNN
F 2 "opendous:SM0603_Opendous" H 10250 3100 60  0001 C CNN
F 3 "" H 10250 3100 60  0001 C CNN
	1    10250 3100
	1    0    0    -1  
$EndComp
$Comp
L GND-RESCUE-i.MX283_Board #PWR064
U 1 1 4FC6C3BF
P 10250 3350
F 0 "#PWR064" H 10250 3350 30  0001 C CNN
F 1 "GND" H 10250 3280 30  0001 C CNN
F 2 "" H 10250 3350 60  0001 C CNN
F 3 "" H 10250 3350 60  0001 C CNN
	1    10250 3350
	1    0    0    -1  
$EndComp
$Comp
L +5VA #PWR065
U 1 1 4FC6C374
P 10150 4700
F 0 "#PWR065" H 10150 4830 20  0001 C CNN
F 1 "+5VA" H 10150 4800 30  0000 C CNN
F 2 "" H 10150 4700 60  0001 C CNN
F 3 "" H 10150 4700 60  0001 C CNN
	1    10150 4700
	1    0    0    -1  
$EndComp
$Comp
L +5V #PWR066
U 1 1 4FC6C320
P 9650 1650
F 0 "#PWR066" H 9650 1740 20  0001 C CNN
F 1 "+5V" H 9650 1740 30  0000 C CNN
F 2 "" H 9650 1650 60  0001 C CNN
F 3 "" H 9650 1650 60  0001 C CNN
	1    9650 1650
	1    0    0    -1  
$EndComp
$Comp
L GND-RESCUE-i.MX283_Board #PWR067
U 1 1 4FC6C2CD
P 10450 2200
F 0 "#PWR067" H 10450 2200 30  0001 C CNN
F 1 "GND" H 10450 2130 30  0001 C CNN
F 2 "" H 10450 2200 60  0001 C CNN
F 3 "" H 10450 2200 60  0001 C CNN
	1    10450 2200
	1    0    0    -1  
$EndComp
$Comp
L INDUCTOR LF11
U 1 1 4FC6C26A
P 10050 1700
F 0 "LF11" V 10000 1700 40  0000 C CNN
F 1 "HZ0805D152R-10" V 10150 1700 40  0000 C CNN
F 2 "opendous:SM0805" H 10050 1700 60  0001 C CNN
F 3 "" H 10050 1700 60  0001 C CNN
	1    10050 1700
	0    -1   -1   0   
$EndComp
$Comp
L C-RESCUE-i.MX283_Board CF37
U 1 1 4FC6C1A7
P 10450 1950
F 0 "CF37" H 10500 2050 50  0000 L CNN
F 1 "10uF" H 10500 1850 50  0000 L CNN
F 2 "opendous:SM1210_Opendous" H 10450 1950 60  0001 C CNN
F 3 "" H 10450 1950 60  0001 C CNN
	1    10450 1950
	1    0    0    -1  
$EndComp
$Comp
L +5VA #PWR068
U 1 1 4FC6C137
P 10850 1700
F 0 "#PWR068" H 10850 1830 20  0001 C CNN
F 1 "+5VA" H 10850 1800 30  0000 C CNN
F 2 "" H 10850 1700 60  0001 C CNN
F 3 "" H 10850 1700 60  0001 C CNN
	1    10850 1700
	1    0    0    -1  
$EndComp
$Comp
L GND-RESCUE-i.MX283_Board #PWR069
U 1 1 4FC6C11B
P 9650 2150
F 0 "#PWR069" H 9650 2150 30  0001 C CNN
F 1 "GND" H 9650 2080 30  0001 C CNN
F 2 "" H 9650 2150 60  0001 C CNN
F 3 "" H 9650 2150 60  0001 C CNN
	1    9650 2150
	1    0    0    -1  
$EndComp
$Comp
L +3.3V-RESCUE-i.MX283_Board #PWR070
U 1 1 4FC6C10C
P 12000 2800
AR Path="/4FC6C10C" Ref="#PWR070"  Part="1" 
AR Path="/555AB8C7/4FC6C10C" Ref="#PWR070"  Part="1" 
F 0 "#PWR070" H 12000 2750 20  0001 C CNN
F 1 "+3.3V" H 12000 2900 30  0000 C CNN
F 2 "" H 12000 2800 60  0001 C CNN
F 3 "" H 12000 2800 60  0001 C CNN
	1    12000 2800
	1    0    0    -1  
$EndComp
$Comp
L R-RESCUE-i.MX283_Board RF18
U 1 1 4FC6BECA
P 11100 1950
F 0 "RF18" V 11180 1950 50  0000 C CNN
F 1 "470R" V 11100 1950 50  0000 C CNN
F 2 "opendous:SM0603_Opendous" H 11100 1950 60  0001 C CNN
F 3 "" H 11100 1950 60  0001 C CNN
	1    11100 1950
	-1   0    0    1   
$EndComp
$Comp
L C-RESCUE-i.MX283_Board CF38
U 1 1 4FC6BE12
P 11100 2400
F 0 "CF38" H 11150 2500 50  0000 L CNN
F 1 "100nF" H 11150 2300 50  0000 L CNN
F 2 "opendous:SM0603_Opendous" H 11100 2400 60  0001 C CNN
F 3 "" H 11100 2400 60  0001 C CNN
	1    11100 2400
	1    0    0    -1  
$EndComp
$Comp
L +5VA #PWR071
U 1 1 4FC6BDF3
P 9900 5500
F 0 "#PWR071" H 9900 5630 20  0001 C CNN
F 1 "+5VA" H 9900 5600 30  0000 C CNN
F 2 "" H 9900 5500 60  0001 C CNN
F 3 "" H 9900 5500 60  0001 C CNN
	1    9900 5500
	1    0    0    -1  
$EndComp
$Comp
L R-RESCUE-i.MX283_Board RF16
U 1 1 4FC6BD44
P 10300 5600
F 0 "RF16" V 10380 5600 50  0000 C CNN
F 1 "10K" V 10300 5600 50  0000 C CNN
F 2 "opendous:SM0603_Opendous" H 10300 5600 60  0001 C CNN
F 3 "" H 10300 5600 60  0001 C CNN
	1    10300 5600
	0    -1   -1   0   
$EndComp
$Comp
L C-RESCUE-i.MX283_Board CF36
U 1 1 4FC6BCE9
P 9650 1900
F 0 "CF36" H 9700 2000 50  0000 L CNN
F 1 "10nF" H 9700 1800 50  0000 L CNN
F 2 "opendous:SM0603_Opendous" H 9650 1900 60  0001 C CNN
F 3 "" H 9650 1900 60  0001 C CNN
	1    9650 1900
	1    0    0    -1  
$EndComp
$Comp
L GND-RESCUE-i.MX283_Board #PWR072
U 1 1 4FC6BCE8
P 11100 2650
F 0 "#PWR072" H 11100 2650 30  0001 C CNN
F 1 "GND" H 11100 2580 30  0001 C CNN
F 2 "" H 11100 2650 60  0001 C CNN
F 3 "" H 11100 2650 60  0001 C CNN
	1    11100 2650
	1    0    0    -1  
$EndComp
$Comp
L +3.3V-RESCUE-i.MX283_Board #PWR073
U 1 1 4FC6BCE7
P 10250 2900
AR Path="/4FC6BCE7" Ref="#PWR073"  Part="1" 
AR Path="/555AB8C7/4FC6BCE7" Ref="#PWR073"  Part="1" 
F 0 "#PWR073" H 10250 2850 20  0001 C CNN
F 1 "+3.3V" H 10250 3000 30  0000 C CNN
F 2 "" H 10250 2900 60  0001 C CNN
F 3 "" H 10250 2900 60  0001 C CNN
	1    10250 2900
	1    0    0    -1  
$EndComp
$Comp
L R-RESCUE-i.MX283_Board RF17
U 1 1 4FC6BC62
P 10400 4500
F 0 "RF17" V 10480 4500 50  0000 C CNN
F 1 "1K5" V 10400 4500 50  0000 C CNN
F 2 "opendous:SM0603_Opendous" H 10400 4500 60  0001 C CNN
F 3 "" H 10400 4500 60  0001 C CNN
	1    10400 4500
	0    -1   -1   0   
$EndComp
$Comp
L R-RESCUE-i.MX283_Board RF15
U 1 1 4FC6BC59
P 9850 4200
F 0 "RF15" V 9930 4200 50  0000 C CNN
F 1 "27R" V 9850 4200 50  0000 C CNN
F 2 "opendous:SM0603_Opendous" H 9850 4200 60  0001 C CNN
F 3 "" H 9850 4200 60  0001 C CNN
	1    9850 4200
	0    -1   -1   0   
$EndComp
$Comp
L R-RESCUE-i.MX283_Board RF14
U 1 1 4FC6BC34
P 9850 3900
F 0 "RF14" V 9930 3900 50  0000 C CNN
F 1 "27R" V 9850 3900 50  0000 C CNN
F 2 "opendous:SM0603_Opendous" H 9850 3900 60  0001 C CNN
F 3 "" H 9850 3900 60  0001 C CNN
	1    9850 3900
	0    -1   -1   0   
$EndComp
$Comp
L FT2232L FT1
U 1 1 4FC6BAB1
P 11800 4700
F 0 "FT1" H 11800 4800 50  0000 C CNN
F 1 "FT2232D" H 11800 4700 50  0000 C CNN
F 2 "Housings_QFP:LQFP-48_7x7mm_Pitch0.5mm" H 11800 4850 50  0001 C CNN
F 3 "" H 11800 4700 60  0001 C CNN
	1    11800 4700
	1    0    0    -1  
$EndComp
$Comp
L VDD5V #PWR074
U 1 1 51CC37E0
P 9500 1650
F 0 "#PWR074" H 9500 1750 30  0001 C CNN
F 1 "VDD5V" H 9500 1750 30  0000 C CNN
F 2 "" H 9500 1650 60  0001 C CNN
F 3 "" H 9500 1650 60  0001 C CNN
	1    9500 1650
	1    0    0    -1  
$EndComp
Wire Wire Line
	9500 1650 9500 1700
Connection ~ 9650 1700
Text HLabel 13750 4800 2    60   BiDi ~ 0
TXD
Text HLabel 13750 4900 2    60   BiDi ~ 0
RXD
Wire Wire Line
	13700 4900 13700 4550
$Comp
L R-RESCUE-i.MX283_Board RF21
U 1 1 51CD787E
P 13700 4300
F 0 "RF21" V 13780 4300 50  0000 C CNN
F 1 "15K" V 13700 4300 50  0000 C CNN
F 2 "opendous:SM0603_Opendous" H 13700 4300 60  0001 C CNN
F 3 "" H 13700 4300 60  0001 C CNN
	1    13700 4300
	1    0    0    -1  
$EndComp
Connection ~ 13700 4900
$Comp
L +3.3V-RESCUE-i.MX283_Board #PWR075
U 1 1 51CD7AF5
P 13700 4000
AR Path="/51CD7AF5" Ref="#PWR075"  Part="1" 
AR Path="/555AB8C7/51CD7AF5" Ref="#PWR075"  Part="1" 
F 0 "#PWR075" H 13700 3950 20  0001 C CNN
F 1 "+3.3V" H 13700 4100 30  0000 C CNN
F 2 "" H 13700 4000 60  0001 C CNN
F 3 "" H 13700 4000 60  0001 C CNN
	1    13700 4000
	1    0    0    -1  
$EndComp
Wire Wire Line
	13700 4000 13700 4050
Wire Wire Line
	13300 3400 12800 3400
Wire Wire Line
	13300 3300 12800 3300
Wire Wire Line
	13300 3500 12800 3500
Wire Wire Line
	13300 3600 12800 3600
Text Label 12900 3300 0    60   ~ 0
TCK
Text Label 12900 3400 0    60   ~ 0
TDI
Text Label 12900 3500 0    60   ~ 0
TDO
Text Label 12900 3600 0    60   ~ 0
TMS
Wire Wire Line
	13300 3700 12800 3700
Wire Wire Line
	13300 3900 12800 3900
Text Label 12900 3700 0    60   ~ 0
nTRST
Text Label 12900 3900 0    60   ~ 0
nSRST
Text HLabel 13300 3300 2    60   Input ~ 0
TCK
Text HLabel 13300 3400 2    60   Input ~ 0
TDI
Text HLabel 13300 3500 2    60   Input ~ 0
TDO
Text HLabel 13300 3600 2    60   Input ~ 0
TMS
Text HLabel 13300 3700 2    60   Input ~ 0
nTRST
Text HLabel 13300 3900 2    60   Input ~ 0
nSRST
$Comp
L ABM8G XF2
U 1 1 543B3F67
P 9500 5100
F 0 "XF2" H 9500 5250 60  0000 C CNN
F 1 "6MHz" H 9500 4950 60  0000 C CNN
F 2 "resonator:CSTCR6M00G53Z" H 9500 5100 60  0001 C CNN
F 3 "" H 9500 5100 60  0001 C CNN
	1    9500 5100
	0    1    1    0   
$EndComp
Wire Wire Line
	9100 5050 8950 5050
Connection ~ 8950 5050
Wire Wire Line
	9100 5150 8950 5150
Connection ~ 8950 5150
Text Notes 9750 5100 0    60   ~ 0
ED2992TR-ND
$Comp
L USB-MINI JMS1
U 1 1 555AD249
P 7350 4000
F 0 "JMS1" H 7100 4450 60  0000 C CNN
F 1 "USB-MINI" H 7250 3800 60  0000 C CNN
F 2 "Connect:USB_Mini-B" H 7350 4000 60  0001 C CNN
F 3 "" H 7350 4000 60  0000 C CNN
	1    7350 4000
	-1   0    0    1   
$EndComp
Wire Wire Line
	8250 3900 8250 4000
Wire Wire Line
	8250 4000 8000 4000
Wire Wire Line
	8250 4100 8250 4200
Wire Wire Line
	8250 4100 8000 4100
$Comp
L VDD5V #PWR076
U 1 1 555AD256
P 7750 5650
F 0 "#PWR076" H 7750 5750 30  0001 C CNN
F 1 "VDD5V" H 7750 5750 30  0000 C CNN
F 2 "" H 7750 5650 60  0001 C CNN
F 3 "" H 7750 5650 60  0001 C CNN
	1    7750 5650
	1    0    0    -1  
$EndComp
$Comp
L GND-RESCUE-i.MX283_Board #PWR077
U 1 1 555AD25C
P 7750 6000
F 0 "#PWR077" H 7750 6000 30  0001 C CNN
F 1 "GND" H 7750 5930 30  0001 C CNN
F 2 "" H 7750 6000 60  0001 C CNN
F 3 "" H 7750 6000 60  0001 C CNN
	1    7750 6000
	1    0    0    -1  
$EndComp
Wire Wire Line
	7750 5650 7750 5750
Wire Wire Line
	7750 5750 7550 5750
Wire Wire Line
	7550 5950 7750 5950
Wire Wire Line
	7750 5950 7750 6000
$Comp
L BARREL_JACK PS1
U 1 1 555AD266
P 7250 5850
F 0 "PS1" H 7250 6100 60  0000 C CNN
F 1 "BARREL_JACK" H 7250 5650 60  0000 C CNN
F 2 "Connect:JACK_ALIM" H 7250 5850 60  0001 C CNN
F 3 "" H 7250 5850 60  0000 C CNN
	1    7250 5850
	1    0    0    -1  
$EndComp
$Comp
L GND-RESCUE-i.MX283_Board #PWR078
U 1 1 555AD26D
P 8200 4350
F 0 "#PWR078" H 8200 4350 30  0001 C CNN
F 1 "GND" H 8200 4280 30  0001 C CNN
F 2 "" H 8200 4350 60  0001 C CNN
F 3 "" H 8200 4350 60  0001 C CNN
	1    8200 4350
	-1   0    0    -1  
$EndComp
Wire Wire Line
	8000 4300 8200 4300
Wire Wire Line
	8200 4300 8200 4350
Wire Wire Line
	8200 5700 8100 5700
Wire Wire Line
	8100 5700 8100 6050
Wire Wire Line
	8100 5800 8200 5800
Wire Wire Line
	8100 5900 8200 5900
Connection ~ 8100 5800
Wire Wire Line
	8100 6000 8200 6000
Connection ~ 8100 5900
$Comp
L GND-RESCUE-i.MX283_Board #PWR079
U 1 1 555AD27C
P 8100 6050
F 0 "#PWR079" H 8100 6050 30  0001 C CNN
F 1 "GND" H 8100 5980 30  0001 C CNN
F 2 "" H 8100 6050 60  0001 C CNN
F 3 "" H 8100 6050 60  0001 C CNN
	1    8100 6050
	1    0    0    -1  
$EndComp
Connection ~ 8100 6000
Wire Wire Line
	6850 3950 6850 4350
Connection ~ 6850 4150
Connection ~ 6850 4050
$Comp
L DIODE DP1
U 1 1 555AD286
P 8150 3600
F 0 "DP1" H 8150 3700 40  0000 C CNN
F 1 "DIODE" H 8150 3500 40  0000 C CNN
F 2 "opendous:SM0603_Opendous" H 8150 3600 60  0001 C CNN
F 3 "" H 8150 3600 60  0000 C CNN
	1    8150 3600
	0    1    -1   0   
$EndComp
$Comp
L VDD5V #PWR080
U 1 1 555AD28D
P 8150 3300
F 0 "#PWR080" H 8150 3400 30  0001 C CNN
F 1 "VDD5V" H 8150 3400 30  0000 C CNN
F 2 "" H 8150 3300 60  0001 C CNN
F 3 "" H 8150 3300 60  0001 C CNN
	1    8150 3300
	-1   0    0    -1  
$EndComp
Wire Wire Line
	8150 3300 8150 3400
Wire Wire Line
	8000 3900 8150 3900
Wire Wire Line
	8150 3900 8150 3800
$Comp
L GND-RESCUE-i.MX283_Board #PWR081
U 1 1 555AD296
P 6850 4350
F 0 "#PWR081" H 6850 4350 30  0001 C CNN
F 1 "GND" H 6850 4280 30  0001 C CNN
F 2 "" H 6850 4350 60  0001 C CNN
F 3 "" H 6850 4350 60  0001 C CNN
	1    6850 4350
	-1   0    0    -1  
$EndComp
Connection ~ 6850 4250
$EndSCHEMATC
